test.vcd
$version Generated by VerilatedVcd $end
$date Sat Apr 10 12:16:05 2021
 $end
$timescale   1ns $end

 $scope module TOP $end
  $var wire  1 \ clk_i $end
  $var wire  8 ^ ext_data_i [7:0] $end
  $var wire  1 _ ext_int_i $end
  $var wire  1 a halt_o $end
  $var wire  1 ] n_rst_i $end
  $var wire  8 ` result_o [7:0] $end
  $scope module core $end
   $var wire  1 ' a_imm_alu $end
   $var wire 10 Z addr_pc [9:0] $end
   $var wire  1 \ clk_i $end
   $var wire  1 8 edge_trig $end
   $var wire  8 ^ ext_data_i [7:0] $end
   $var wire  1 _ ext_int_i $end
   $var wire  4 % flags_alu [3:0] $end
   $var wire  3 & func_alu [2:0] $end
   $var wire  1 a halt_o $end
   $var wire  8 . immediate [7:0] $end
   $var wire 24 + instruction [23:0] $end
   $var wire  2 $ mode_pc [1:0] $end
   $var wire  1 ] n_rst_i $end
   $var wire  6 ( op_code [5:0] $end
   $var wire  5 , rd_addr [4:0] $end
   $var wire  8 # rd_data [7:0] $end
   $var wire  8 ` result_o [7:0] $end
   $var wire  5 - rs_addr [4:0] $end
   $var wire  8 / rs_data [7:0] $end
   $var wire  1 * wfi_core $end
   $var wire  1 ) wr_en_rf $end
   $scope module alu0 $end
    $var wire  8 0 a_i [7:0] $end
    $var wire  8 / b_i [7:0] $end
    $var wire  4 % flags_o [3:0] $end
    $var wire  3 & op [2:0] $end
    $var wire  9 3 r_as [8:0] $end
    $var wire  8 ` r_o [7:0] $end
    $var wire  1 1 sub $end
    $var wire 10 2 tmp [9:0] $end
    $scope module ov0 $end
     $var wire  1 4 a $end
     $var wire  1 5 b $end
     $var wire  1 7 c $end
     $var wire  1 c r $end
     $var wire  1 1 s $end
     $var wire  1 6 v $end
    $upscope $end
   $upscope $end
   $scope module dec0 $end
    $var wire  1 ' a_imm_alu_o $end
    $var wire  1 8 ext_int_i $end
    $var wire  4 % flags_alu_i [3:0] $end
    $var wire  3 & func_alu_o [2:0] $end
    $var wire  1 a halt_core_o $end
    $var wire  2 $ mode_pc_o [1:0] $end
    $var wire  6 ( op_code_i [5:0] $end
    $var wire  1 * wfi_core_o $end
    $var wire  1 ) wr_en_rf_o $end
   $upscope $end
   $scope module ed0 $end
    $var wire  1 \ clk_i $end
    $var wire  1 8 edge_o $end
    $var wire  1 _ sig_i $end
    $var wire  3 9 stages [2:0] $end
   $upscope $end
   $scope module pc0 $end
    $var wire 10 Z addr_o [9:0] $end
    $var wire  1 \ clk_i $end
    $var wire  8 . data_i [7:0] $end
    $var wire  1 b halt_i $end
    $var wire  2 $ mode_i [1:0] $end
    $var wire  1 ] n_rst_i $end
    $var wire 10 [ rtn_addr [9:0] $end
   $upscope $end
   $scope module rf0 $end
    $var wire  1 \ clk_i $end
    $var wire  8 ^ ext_data_i [7:0] $end
    $var wire  5 , rd_addr_i [4:0] $end
    $var wire  8 # rd_data_o [7:0] $end
    $var wire  8 : regs(0) [7:0] $end
    $var wire  8 ; regs(1) [7:0] $end
    $var wire  8 D regs(10) [7:0] $end
    $var wire  8 E regs(11) [7:0] $end
    $var wire  8 F regs(12) [7:0] $end
    $var wire  8 G regs(13) [7:0] $end
    $var wire  8 H regs(14) [7:0] $end
    $var wire  8 I regs(15) [7:0] $end
    $var wire  8 J regs(16) [7:0] $end
    $var wire  8 K regs(17) [7:0] $end
    $var wire  8 L regs(18) [7:0] $end
    $var wire  8 M regs(19) [7:0] $end
    $var wire  8 < regs(2) [7:0] $end
    $var wire  8 N regs(20) [7:0] $end
    $var wire  8 O regs(21) [7:0] $end
    $var wire  8 P regs(22) [7:0] $end
    $var wire  8 Q regs(23) [7:0] $end
    $var wire  8 R regs(24) [7:0] $end
    $var wire  8 S regs(25) [7:0] $end
    $var wire  8 T regs(26) [7:0] $end
    $var wire  8 U regs(27) [7:0] $end
    $var wire  8 V regs(28) [7:0] $end
    $var wire  8 W regs(29) [7:0] $end
    $var wire  8 = regs(3) [7:0] $end
    $var wire  8 X regs(30) [7:0] $end
    $var wire  8 Y regs(31) [7:0] $end
    $var wire  8 > regs(4) [7:0] $end
    $var wire  8 ? regs(5) [7:0] $end
    $var wire  8 @ regs(6) [7:0] $end
    $var wire  8 A regs(7) [7:0] $end
    $var wire  8 B regs(8) [7:0] $end
    $var wire  8 C regs(9) [7:0] $end
    $var wire  5 - rs_addr_i [4:0] $end
    $var wire  8 / rs_data_o [7:0] $end
    $var wire  8 ` wd_data_i [7:0] $end
    $var wire  1 ) wr_en_i $end
   $upscope $end
   $scope module rom0 $end
    $var wire 10 Z addr_i [9:0] $end
    $var wire 24 + data_o [23:0] $end
   $upscope $end
  $upscope $end
  $scope module pico $end
   $var wire 32 d A [31:0] $end
   $var wire 32 e N [31:0] $end
   $var wire 32 f R [31:0] $end
   $var wire 32 e W_IMM [31:0] $end
   $var wire 32 i W_INST [31:0] $end
   $var wire 32 g W_OPCODE [31:0] $end
   $var wire 32 h W_RADDR [31:0] $end
  $upscope $end
 $upscope $end
$enddefinitions $end


#1
b00000000 #
b11 $
b0000 %
b000 &
1'
b110000 (
0)
0*
b110000000000000000000101 +
b00000 ,
b00000 -
b00000101 .
b00000000 /
b00000101 0
01
b0000001010 2
b000000101 3
04
05
06
07
08
b000 9
b00000000 :
b00000000 ;
b00000000 <
b00000000 =
b00000000 >
b00000000 ?
b00000000 @
b00000000 A
b00000000 B
b00000000 C
b00000000 D
b00000000 E
b00000000 F
b00000000 G
b00000000 H
b00000000 I
b00000000 J
b00000000 K
b00000000 L
b00000000 M
b00000000 N
b00000000 O
b00000000 P
b00000000 Q
b00000000 R
b00000000 S
b00000000 T
b00000000 U
b00000000 V
b00000000 W
b00000000 X
b00000000 Y
b0000000000 Z
b0000000000 [
1\
0]
b00000000 ^
1_
b00000101 `
0a
0b
0c
b00000000000000000000000000001010 d
b00000000000000000000000000001000 e
b00000000000000000000000000100000 f
b00000000000000000000000000000110 g
b00000000000000000000000000000101 h
b00000000000000000000000000011000 i
#2
0\
#3
b001 9
1\
#4
0\
#5
18
b011 9
1\
#6
0\
#7
08
b111 9
1\
#8
0\
#9
1\
#10
0\
#11
b110 9
1\
0_
#12
0\
1]
#13
b01 $
b1000 %
b001 &
b010001 (
1)
b010001010000000000000000 +
b01000 ,
b00000000 .
b00000000 0
b0000000000 2
b000000000 3
18
b100 9
b0000000101 Z
b0000000001 [
1\
b00000000 `
#14
0\
#15
b11 $
b0000 %
b000 &
b110000 (
0)
b110000000000000000000001 +
b00000 ,
b00000001 .
b00000001 0
b0000000010 2
b000000001 3
08
b000 9
b0000000110 Z
1\
b00000001 `
#16
0\
#17
b01 $
b1000 %
b010 &
b111111 (
1*
b111111000000000000000000 +
b00000000 .
b00000000 0
11
b0000000000 2
b000000000 3
b0000000001 Z
b0000000111 [
1\
b00000000 `
1b
#18
0\
#19
1\
#20
0\
#21
b001 9
b01111111 X
1\
b01111111 ^
1_
#22
0\
#23
0*
18
b011 9
1\
0b
#24
0\
#25
b0000 %
b001 &
b010001 (
1)
b010001001001111000000000 +
b00100 ,
b11110 -
b01111111 /
01
b0011111110 2
b001111111 3
08
b111 9
b0000000010 Z
1\
b01111111 `
#26
0\
#27
b1000 %
b010 &
b111111 (
0)
1*
b111111000000000000000000 +
b00000 ,
b00000 -
b00000000 /
11
b0000000000 2
b000000000 3
b01111111 >
b0000000011 Z
1\
b00000000 `
1b
#28
0\
#29
1\
#30
0\
#31
b110 9
1\
0_
#32
0\
#33
0*
18
b100 9
1\
0b
#34
0\
#35
b00 $
b001 &
b110001 (
b110001000000000000000000 +
01
08
b000 9
b0000000100 Z
1\
#36
0\
#37
b01 $
b0000 %
b010001 (
1)
b010001001100010000000000 +
b00110 ,
b00100 -
b01111111 /
b0011111110 2
b001111111 3
b0000000111 Z
b0000000000 [
1\
b01111111 `
#38
0\
#39
b11 $
b000 &
b110000 (
0)
b110000000000000000000001 +
b00000 ,
b00000 -
b00000001 .
b00000000 /
b00000001 0
b0000000010 2
b000000001 3
b01111111 @
b0000001000 Z
1\
b00000001 `
#40
0\
#41
b01 $
b1000 %
b010 &
b111111 (
1*
b111111000000000000000000 +
b00000000 .
b00000000 0
11
b0000000000 2
b000000000 3
b001 9
b00000101 X
b0000000001 Z
b0000001001 [
1\
b00000101 ^
1_
b00000000 `
1b
#42
0\
#43
0*
18
b011 9
1\
0b
#44
0\
#45
b01111111 #
b0000 %
b001 &
b010001 (
1)
b010001001001111000000000 +
b00100 ,
b11110 -
b00000101 /
01
b0000001010 2
b000000101 3
08
b111 9
b0000000010 Z
1\
b00000101 `
#46
0\
#47
b00000000 #
b1000 %
b010 &
b111111 (
0)
1*
b111111000000000000000000 +
b00000 ,
b00000 -
b00000000 /
11
b0000000000 2
b000000000 3
b00000101 >
b0000000011 Z
1\
b00000000 `
1b
#48
0\
#49
1\
#50
0\
#51
b110 9
1\
0_
#52
0\
#53
0*
18
b100 9
1\
0b
#54
0\
#55
b00 $
b001 &
b110001 (
b110001000000000000000000 +
01
08
b000 9
b0000000100 Z
1\
#56
0\
#57
b01 $
b0000 %
b010001 (
1)
b010001001010010000000000 +
b00101 ,
b00100 -
b00000101 /
b0000001010 2
b000000101 3
b0000001001 Z
b0000000000 [
1\
b00000101 `
#58
0\
#59
b01111111 #
b0110 %
0'
b000001 (
b000001001100010100000000 +
b00110 ,
b00101 -
b01111111 0
b0100001000 2
b010000100 3
16
b00000101 ?
b0000001010 Z
1\
b10000100 `
1c
#60
0\
#61
b00000000 #
b0100 %
b000001010000011000000000 +
b01000 ,
b00110 -
b10000100 /
b00000000 0
15
06
b001 9
b10000100 @
b11110110 X
b0000001011 Z
1\
b11110110 ^
1_
#62
0\
#63
b11 $
b0000 %
b000 &
1'
b110000 (
0)
b110000000000000000000101 +
b00000 ,
b00000 -
b00000101 .
b00000000 /
b00000101 0
b0000001010 2
b000000101 3
05
18
b011 9
b10000100 B
b0000001100 Z
1\
b00000101 `
0c
#64
0\
#65
b10000100 #
b01 $
b1000 %
b001 &
b010001 (
1)
b010001010000000000000000 +
b01000 ,
b00000000 .
b00000000 0
b0000000000 2
b000000000 3
08
b111 9
b0000000101 Z
b0000001101 [
1\
b00000000 `
#66
0\
#67
b00000000 #
b11 $
b0000 %
b000 &
b110000 (
0)
b110000000000000000000001 +
b00000 ,
b00000001 .
b00000001 0
b0000000010 2
b000000001 3
b00000000 B
b0000000110 Z
1\
b00000001 `
#68
0\
#69
b01 $
b1000 %
b010 &
b111111 (
1*
b111111000000000000000000 +
b00000000 .
b00000000 0
11
b0000000000 2
b000000000 3
b0000000001 Z
b0000000111 [
1\
b00000000 `
1b
#70
0\
#71
b110 9
1\
0_
#72
0\
#73
0*
18
b100 9
1\
0b
#74
0\
#75
b00000101 #
b0100 %
b001 &
b010001 (
1)
b010001001001111000000000 +
b00100 ,
b11110 -
b11110110 /
01
b0111101100 2
b011110110 3
15
08
b000 9
b0000000010 Z
1\
b11110110 `
1c
#76
0\
#77
b00000000 #
b1000 %
b010 &
b111111 (
0)
1*
b111111000000000000000000 +
b00000 ,
b00000 -
b00000000 /
11
b0000000000 2
b000000000 3
05
b11110110 >
b0000000011 Z
1\
b00000000 `
1b
0c
#78
0\
#79
1\
#80
0\
#81
b001 9
b10001000 X
1\
b10001000 ^
1_
#82
0\
#83
0*
18
b011 9
1\
0b
#84
0\
#85
b00 $
b001 &
b110001 (
b110001000000000000000000 +
01
08
b111 9
b0000000100 Z
1\
#86
0\
#87
b10000100 #
b01 $
b0100 %
b010001 (
1)
b010001001100010000000000 +
b00110 ,
b00100 -
b11110110 /
b0111101100 2
b011110110 3
15
b0000000111 Z
b0000000000 [
1\
b11110110 `
1c
#88
0\
#89
b00000000 #
b11 $
b0000 %
b000 &
b110000 (
0)
b110000000000000000000001 +
b00000 ,
b00000 -
b00000001 .
b00000000 /
b00000001 0
b0000000010 2
b000000001 3
05
b11110110 @
b0000001000 Z
1\
b00000001 `
0c
#90
0\
#91
b01 $
b1000 %
b010 &
b111111 (
1*
b111111000000000000000000 +
b00000000 .
b00000000 0
11
b0000000000 2
b000000000 3
b110 9
b0000000001 Z
b0000001001 [
1\
0_
b00000000 `
1b
#92
0\
#93
0*
18
b100 9
1\
0b
#94
0\
#95
b11110110 #
b0100 %
b001 &
b010001 (
1)
b010001001001111000000000 +
b00100 ,
b11110 -
b10001000 /
01
b0100010000 2
b010001000 3
15
08
b000 9
b0000000010 Z
1\
b10001000 `
1c
#96
0\
#97
b00000000 #
b1000 %
b010 &
b111111 (
0)
1*
b111111000000000000000000 +
b00000 ,
b00000 -
b00000000 /
11
b0000000000 2
b000000000 3
05
b10001000 >
b0000000011 Z
1\
b00000000 `
1b
0c
#98
0\
#99
1\
#100
0\
#101
b001 9
b00011001 X
1\
b00011001 ^
1_
#102
0\
#103
0*
18
b011 9
1\
0b
#104
0\
#105
b00 $
b001 &
b110001 (
b110001000000000000000000 +
01
08
b111 9
b0000000100 Z
1\
#106
0\
#107
b00000101 #
b01 $
b0100 %
b010001 (
1)
b010001001010010000000000 +
b00101 ,
b00100 -
b10001000 /
b0100010000 2
b010001000 3
15
b0000001001 Z
b0000000000 [
1\
b10001000 `
1c
#108
0\
#109
b11110110 #
b0011 %
0'
b000001 (
b000001001100010100000000 +
b00110 ,
b00101 -
b11110110 0
b1011111100 2
b101111110 3
14
16
17
b10001000 ?
b0000001010 Z
1\
b01111110 `
0c
#110
0\
#111
b00000000 #
b0000 %
b000001010000011000000000 +
b01000 ,
b00110 -
b01111110 /
b00000000 0
b0011111100 2
b001111110 3
04
05
06
07
b110 9
b01111110 @
b0000001011 Z
1\
0_
#112
0\
#113
b11 $
b000 &
1'
b110000 (
0)
b110000000000000000000101 +
b00000 ,
b00000 -
b00000101 .
b00000000 /
b00000101 0
b0000001010 2
b000000101 3
18
b100 9
b01111110 B
b0000001100 Z
1\
b00000101 `
#114
0\
#115
b01111110 #
b01 $
b1000 %
b001 &
b010001 (
1)
b010001010000000000000000 +
b01000 ,
b00000000 .
b00000000 0
b0000000000 2
b000000000 3
08
b000 9
b0000000101 Z
b0000001101 [
1\
b00000000 `
#116
0\
#117
b00000000 #
b11 $
b0000 %
b000 &
b110000 (
0)
b110000000000000000000001 +
b00000 ,
b00000001 .
b00000001 0
b0000000010 2
b000000001 3
b00000000 B
b0000000110 Z
1\
b00000001 `
#118
0\
#119
b01 $
b1000 %
b010 &
b111111 (
1*
b111111000000000000000000 +
b00000000 .
b00000000 0
11
b0000000000 2
b000000000 3
b0000000001 Z
b0000000111 [
1\
b00000000 `
1b
#120
0\
#121
b001 9
b00100000 X
1\
b00100000 ^
1_
#122
0\
#123
0*
18
b011 9
1\
0b
#124
0\
#125
b10001000 #
b0000 %
b001 &
b010001 (
1)
b010001001001111000000000 +
b00100 ,
b11110 -
b00100000 /
01
b0001000000 2
b000100000 3
08
b111 9
b0000000010 Z
1\
b00100000 `
#126
0\
#127
b00000000 #
b1000 %
b010 &
b111111 (
0)
1*
b111111000000000000000000 +
b00000 ,
b00000 -
b00000000 /
11
b0000000000 2
b000000000 3
b00100000 >
b0000000011 Z
1\
b00000000 `
1b
#128
0\
#129
1\
#130
0\
#131
b110 9
1\
0_
#132
0\
#133
0*
18
b100 9
1\
0b
#134
0\
#135
b00 $
b001 &
b110001 (
b110001000000000000000000 +
01
08
b000 9
b0000000100 Z
1\
#136
0\
#137
b01111110 #
b01 $
b0000 %
b010001 (
1)
b010001001100010000000000 +
b00110 ,
b00100 -
b00100000 /
b0001000000 2
b000100000 3
b0000000111 Z
b0000000000 [
1\
b00100000 `
#138
0\
#139
b00000000 #
b11 $
b000 &
b110000 (
0)
b110000000000000000000001 +
b00000 ,
b00000 -
b00000001 .
b00000000 /
b00000001 0
b0000000010 2
b000000001 3
b00100000 @
b0000001000 Z
1\
b00000001 `
#140
0\
#141
b01 $
b1000 %
b010 &
b111111 (
1*
b111111000000000000000000 +
b00000000 .
b00000000 0
11
b0000000000 2
b000000000 3
b001 9
b11111110 X
b0000000001 Z
b0000001001 [
1\
b11111110 ^
1_
b00000000 `
1b
#142
0\
#143
0*
18
b011 9
1\
0b
#144
0\
#145
b00100000 #
b0100 %
b001 &
b010001 (
1)
b010001001001111000000000 +
b00100 ,
b11110 -
b11111110 /
01
b0111111100 2
b011111110 3
15
08
b111 9
b0000000010 Z
1\
b11111110 `
1c
#146
0\
#147
b00000000 #
b1000 %
b010 &
b111111 (
0)
1*
b111111000000000000000000 +
b00000 ,
b00000 -
b00000000 /
11
b0000000000 2
b000000000 3
05
b11111110 >
b0000000011 Z
1\
b00000000 `
1b
0c
#148
0\
#149
1\
#150
0\
#151
b110 9
1\
0_
#152
0\
#153
0*
18
b100 9
1\
0b
#154
0\
#155
b00 $
b001 &
b110001 (
b110001000000000000000000 +
01
08
b000 9
b0000000100 Z
1\
#156
0\
#157
b10001000 #
b01 $
b0100 %
b010001 (
1)
b010001001010010000000000 +
b00101 ,
b00100 -
b11111110 /
b0111111100 2
b011111110 3
15
b0000001001 Z
b0000000000 [
1\
b11111110 `
1c
#158
0\
#159
b00100000 #
b0001 %
0'
b000001 (
b000001001100010100000000 +
b00110 ,
b00101 -
b00100000 0
b1000111100 2
b100011110 3
17
b11111110 ?
b0000001010 Z
1\
b00011110 `
0c
#160
0\
#161
b00000000 #
b0000 %
b000001010000011000000000 +
b01000 ,
b00110 -
b00011110 /
b00000000 0
b0000111100 2
b000011110 3
05
07
b001 9
b00011110 @
b00000011 X
b0000001011 Z
1\
b00000011 ^
1_
#162
0\
#163
b11 $
b000 &
1'
b110000 (
0)
b110000000000000000000101 +
b00000 ,
b00000 -
b00000101 .
b00000000 /
b00000101 0
b0000001010 2
b000000101 3
18
b011 9
b00011110 B
b0000001100 Z
1\
b00000101 `
#164
0\
#165
b00011110 #
b01 $
b1000 %
b001 &
b010001 (
1)
b010001010000000000000000 +
b01000 ,
b00000000 .
b00000000 0
b0000000000 2
b000000000 3
08
b111 9
b0000000101 Z
b0000001101 [
1\
b00000000 `
#166
0\
#167
b00000000 #
b11 $
b0000 %
b000 &
b110000 (
0)
b110000000000000000000001 +
b00000 ,
b00000001 .
b00000001 0
b0000000010 2
b000000001 3
b00000000 B
b0000000110 Z
1\
b00000001 `
#168
0\
#169
b01 $
b1000 %
b010 &
b111111 (
1*
b111111000000000000000000 +
b00000000 .
b00000000 0
11
b0000000000 2
b000000000 3
b0000000001 Z
b0000000111 [
1\
b00000000 `
1b
#170
0\
#171
b110 9
1\
0_
#172
0\
#173
0*
18
b100 9
1\
0b
#174
0\
#175
b11111110 #
b0000 %
b001 &
b010001 (
1)
b010001001001111000000000 +
b00100 ,
b11110 -
b00000011 /
01
b0000000110 2
b000000011 3
08
b000 9
b0000000010 Z
1\
b00000011 `
#176
0\
#177
b00000000 #
b1000 %
b010 &
b111111 (
0)
1*
b111111000000000000000000 +
b00000 ,
b00000 -
b00000000 /
11
b0000000000 2
b000000000 3
b00000011 >
b0000000011 Z
1\
b00000000 `
1b
#178
0\
#179
1\
#180
0\
#181
b001 9
b00000101 X
1\
b00000101 ^
1_
#182
0\
#183
0*
18
b011 9
1\
0b
#184
0\
#185
b00 $
b001 &
b110001 (
b110001000000000000000000 +
01
08
b111 9
b0000000100 Z
1\
#186
0\
#187
b00011110 #
b01 $
b0000 %
b010001 (
1)
b010001001100010000000000 +
b00110 ,
b00100 -
b00000011 /
b0000000110 2
b000000011 3
b0000000111 Z
b0000000000 [
1\
b00000011 `
#188
0\
#189
b00000000 #
b11 $
b000 &
b110000 (
0)
b110000000000000000000001 +
b00000 ,
b00000 -
b00000001 .
b00000000 /
b00000001 0
b0000000010 2
b000000001 3
b00000011 @
b0000001000 Z
1\
b00000001 `
#190
0\
#191
b01 $
b1000 %
b010 &
b111111 (
1*
b111111000000000000000000 +
b00000000 .
b00000000 0
11
b0000000000 2
b000000000 3
b110 9
b0000000001 Z
b0000001001 [
1\
0_
b00000000 `
1b
#192
0\
#193
0*
18
b100 9
1\
0b
#194
0\
#195
b00000011 #
b0000 %
b001 &
b010001 (
1)
b010001001001111000000000 +
b00100 ,
b11110 -
b00000101 /
01
b0000001010 2
b000000101 3
08
b000 9
b0000000010 Z
1\
b00000101 `
#196
0\
#197
b00000000 #
b1000 %
b010 &
b111111 (
0)
1*
b111111000000000000000000 +
b00000 ,
b00000 -
b00000000 /
11
b0000000000 2
b000000000 3
b00000101 >
b0000000011 Z
1\
b00000000 `
1b
#198
0\
#199
1\
#200
0\
#201
b001 9
b00000110 X
1\
b00000110 ^
1_
#202
0\
#203
0*
18
b011 9
1\
0b
#204
0\
#205
b00 $
b001 &
b110001 (
b110001000000000000000000 +
01
08
b111 9
b0000000100 Z
1\
#206
0\
#207
b11111110 #
b01 $
b0000 %
b010001 (
1)
b010001001010010000000000 +
b00101 ,
b00100 -
b00000101 /
b0000001010 2
b000000101 3
b0000001001 Z
b0000000000 [
1\
b00000101 `
#208
0\
#209
b00000011 #
0'
b000001 (
b000001001100010100000000 +
b00110 ,
b00101 -
b00000011 0
b0000010000 2
b000001000 3
b00000101 ?
b0000001010 Z
1\
b00001000 `
#210
0\
#211
b00000000 #
b000001010000011000000000 +
b01000 ,
b00110 -
b00001000 /
b00000000 0
b110 9
b00001000 @
b0000001011 Z
1\
0_
#212
0\
#213
b11 $
b000 &
1'
b110000 (
0)
b110000000000000000000101 +
b00000 ,
b00000 -
b00000101 .
b00000000 /
b00000101 0
b0000001010 2
b000000101 3
18
b100 9
b00001000 B
b0000001100 Z
1\
b00000101 `
#214
0\
#215
b00001000 #
b01 $
b1000 %
b001 &
b010001 (
1)
b010001010000000000000000 +
b01000 ,
b00000000 .
b00000000 0
b0000000000 2
b000000000 3
08
b000 9
b0000000101 Z
b0000001101 [
1\
b00000000 `
#216
0\
#217
b00000000 #
b11 $
b0000 %
b000 &
b110000 (
0)
b110000000000000000000001 +
b00000 ,
b00000001 .
b00000001 0
b0000000010 2
b000000001 3
b00000000 B
b0000000110 Z
1\
b00000001 `
#218
0\
#219
b01 $
b1000 %
b010 &
b111111 (
1*
b111111000000000000000000 +
b00000000 .
b00000000 0
11
b0000000000 2
b000000000 3
b0000000001 Z
b0000000111 [
1\
b00000000 `
1b
#220
0\
#221
b001 9
b00000000 X
1\
b00000000 ^
1_
#222
0\
#223
0*
18
b011 9
1\
0b
#224
0\
#225
b00000101 #
b001 &
b010001 (
1)
b010001001001111000000000 +
b00100 ,
b11110 -
01
08
b111 9
b0000000010 Z
1\
#226
0\
#227
b00000000 #
b010 &
b111111 (
0)
1*
b111111000000000000000000 +
b00000 ,
b00000 -
11
b00000000 >
b0000000011 Z
1\
1b
#228
0\
#229
1\
#230
0\
#231
b110 9
1\
0_
#232
0\
#233
0*
18
b100 9
1\
0b
#234
0\
#235
b00 $
b001 &
b110001 (
b110001000000000000000000 +
01
08
b000 9
b0000000100 Z
1\
#236
0\
#237
b00001000 #
b01 $
b010001 (
1)
b010001001100010000000000 +
b00110 ,
b00100 -
b0000000111 Z
b0000000000 [
1\
#238
0\
#239
b00000000 #
b11 $
b0000 %
b000 &
b110000 (
0)
b110000000000000000000001 +
b00000 ,
b00000 -
b00000001 .
b00000001 0
b0000000010 2
b000000001 3
b00000000 @
b0000001000 Z
1\
b00000001 `
#240
0\
#241
b01 $
b1000 %
b010 &
b111111 (
1*
b111111000000000000000000 +
b00000000 .
b00000000 0
11
b0000000000 2
b000000000 3
b001 9
b01111111 X
b0000000001 Z
b0000001001 [
1\
b01111111 ^
1_
b00000000 `
1b
#242
0\
#243
0*
18
b011 9
1\
0b
#244
0\
#245
b0000 %
b001 &
b010001 (
1)
b010001001001111000000000 +
b00100 ,
b11110 -
b01111111 /
01
b0011111110 2
b001111111 3
08
b111 9
b0000000010 Z
1\
b01111111 `
#246
0\
#247
b1000 %
b010 &
b111111 (
0)
1*
b111111000000000000000000 +
b00000 ,
b00000 -
b00000000 /
11
b0000000000 2
b000000000 3
b01111111 >
b0000000011 Z
1\
b00000000 `
1b
#248
0\
#249
1\
#250
0\
#251
b110 9
1\
0_
#252
0\
#253
0*
18
b100 9
1\
0b
#254
0\
#255
b00 $
b001 &
b110001 (
b110001000000000000000000 +
01
08
b000 9
b0000000100 Z
1\
#256
0\
#257
b00000101 #
b01 $
b0000 %
b010001 (
1)
b010001001010010000000000 +
b00101 ,
b00100 -
b01111111 /
b0011111110 2
b001111111 3
b0000001001 Z
b0000000000 [
1\
b01111111 `
#258
0\
#259
b00000000 #
0'
b000001 (
b000001001100010100000000 +
b00110 ,
b00101 -
b01111111 ?
b0000001010 Z
1\
#260
0\
#261
b000001010000011000000000 +
b01000 ,
b00110 -
b001 9
b01111111 @
b00000101 X
b0000001011 Z
1\
b00000101 ^
1_
#262
0\
#263
b11 $
b000 &
1'
b110000 (
0)
b110000000000000000000101 +
b00000 ,
b00000 -
b00000101 .
b00000000 /
b00000101 0
b0000001010 2
b000000101 3
18
b011 9
b01111111 B
b0000001100 Z
1\
b00000101 `
#264
0\
#265
b01111111 #
b01 $
b1000 %
b001 &
b010001 (
1)
b010001010000000000000000 +
b01000 ,
b00000000 .
b00000000 0
b0000000000 2
b000000000 3
08
b111 9
b0000000101 Z
b0000001101 [
1\
b00000000 `
#266
0\
#267
b00000000 #
b11 $
b0000 %
b000 &
b110000 (
0)
b110000000000000000000001 +
b00000 ,
b00000001 .
b00000001 0
b0000000010 2
b000000001 3
b00000000 B
b0000000110 Z
1\
b00000001 `
#268
0\
#269
b01 $
b1000 %
b010 &
b111111 (
1*
b111111000000000000000000 +
b00000000 .
b00000000 0
11
b0000000000 2
b000000000 3
b0000000001 Z
b0000000111 [
1\
b00000000 `
1b
#270
0\
#271
b110 9
1\
0_
#272
0\
#273
0*
18
b100 9
1\
0b
#274
0\
#275
b01111111 #
b0000 %
b001 &
b010001 (
1)
b010001001001111000000000 +
b00100 ,
b11110 -
b00000101 /
01
b0000001010 2
b000000101 3
08
b000 9
b0000000010 Z
1\
b00000101 `
#276
0\
#277
b00000000 #
b1000 %
b010 &
b111111 (
0)
1*
b111111000000000000000000 +
b00000 ,
b00000 -
b00000000 /
11
b0000000000 2
b000000000 3
b00000101 >
b0000000011 Z
1\
b00000000 `
1b
#278
0\
#279
1\
#280
0\
#281
b001 9
b11110110 X
1\
b11110110 ^
1_
#282
0\
#283
0*
18
b011 9
1\
0b
#284
0\
#285
b00 $
b001 &
b110001 (
b110001000000000000000000 +
01
08
b111 9
b0000000100 Z
1\
#286
0\
#287
b01111111 #
b01 $
b0000 %
b010001 (
1)
b010001001100010000000000 +
b00110 ,
b00100 -
b00000101 /
b0000001010 2
b000000101 3
b0000000111 Z
b0000000000 [
1\
b00000101 `
#288
0\
#289
b00000000 #
b11 $
b000 &
b110000 (
0)
b110000000000000000000001 +
b00000 ,
b00000 -
b00000001 .
b00000000 /
b00000001 0
b0000000010 2
b000000001 3
b00000101 @
b0000001000 Z
1\
b00000001 `
#290
0\
#291
b01 $
b1000 %
b010 &
b111111 (
1*
b111111000000000000000000 +
b00000000 .
b00000000 0
11
b0000000000 2
b000000000 3
b110 9
b0000000001 Z
b0000001001 [
1\
0_
b00000000 `
1b
#292
0\
#293
0*
18
b100 9
1\
0b
#294
0\
#295
b00000101 #
b0100 %
b001 &
b010001 (
1)
b010001001001111000000000 +
b00100 ,
b11110 -
b11110110 /
01
b0111101100 2
b011110110 3
15
08
b000 9
b0000000010 Z
1\
b11110110 `
1c
#296
0\
#297
b00000000 #
b1000 %
b010 &
b111111 (
0)
1*
b111111000000000000000000 +
b00000 ,
b00000 -
b00000000 /
11
b0000000000 2
b000000000 3
05
b11110110 >
b0000000011 Z
1\
b00000000 `
1b
0c
#298
0\
#299
1\
#300
0\
#301
b001 9
b10001000 X
1\
b10001000 ^
1_
#302
0\
#303
0*
18
b011 9
1\
0b
#304
0\
#305
b00 $
b001 &
b110001 (
b110001000000000000000000 +
01
08
b111 9
b0000000100 Z
1\
#306
0\
#307
b01111111 #
b01 $
b0100 %
b010001 (
1)
b010001001010010000000000 +
b00101 ,
b00100 -
b11110110 /
b0111101100 2
b011110110 3
15
b0000001001 Z
b0000000000 [
1\
b11110110 `
1c
#308
0\
#309
b00000101 #
0'
b000001 (
b000001001100010100000000 +
b00110 ,
b00101 -
b00000101 0
b0111110110 2
b011111011 3
b11110110 ?
b0000001010 Z
1\
b11111011 `
#310
0\
#311
b00000000 #
b000001010000011000000000 +
b01000 ,
b00110 -
b11111011 /
b00000000 0
b110 9
b11111011 @
b0000001011 Z
1\
0_
#312
0\
#313
b11 $
b0000 %
b000 &
1'
b110000 (
0)
b110000000000000000000101 +
b00000 ,
b00000 -
b00000101 .
b00000000 /
b00000101 0
b0000001010 2
b000000101 3
05
18
b100 9
b11111011 B
b0000001100 Z
1\
b00000101 `
0c
#314
0\
#315
b11111011 #
b01 $
b1000 %
b001 &
b010001 (
1)
b010001010000000000000000 +
b01000 ,
b00000000 .
b00000000 0
b0000000000 2
b000000000 3
08
b000 9
b0000000101 Z
b0000001101 [
1\
b00000000 `
#316
0\
#317
b00000000 #
b11 $
b0000 %
b000 &
b110000 (
0)
b110000000000000000000001 +
b00000 ,
b00000001 .
b00000001 0
b0000000010 2
b000000001 3
b00000000 B
b0000000110 Z
1\
b00000001 `
#318
0\
#319
b01 $
b1000 %
b010 &
b111111 (
1*
b111111000000000000000000 +
b00000000 .
b00000000 0
11
b0000000000 2
b000000000 3
b0000000001 Z
b0000000111 [
1\
b00000000 `
1b
#320
0\
#321
b001 9
b00011001 X
1\
b00011001 ^
1_
#322
0\
#323
0*
18
b011 9
1\
0b
#324
0\
