test.vcd
$version Generated by VerilatedVcd $end
$date Sat Apr 10 02:00:06 2021
 $end
$timescale   1ns $end

 $scope module TOP $end
  $var wire  1 W clk_i $end
  $var wire  8 Y ext_data_i [7:0] $end
  $var wire  1 Z ext_int_i $end
  $var wire  1 \ halt_o $end
  $var wire  1 X n_rst_i $end
  $var wire  8 [ result_o [7:0] $end
  $scope module core $end
   $var wire  1 ' a_imm_alu $end
   $var wire 10 U addr_pc [9:0] $end
   $var wire  1 W clk_i $end
   $var wire  1 3 edge_trig $end
   $var wire  8 Y ext_data_i [7:0] $end
   $var wire  1 Z ext_int_i $end
   $var wire  4 % flags_alu [3:0] $end
   $var wire  3 & func_alu [2:0] $end
   $var wire  1 \ halt_o $end
   $var wire  8 . immediate [7:0] $end
   $var wire 24 + instruction [23:0] $end
   $var wire  2 $ mode_pc [1:0] $end
   $var wire  1 X n_rst_i $end
   $var wire  6 ( op_code [5:0] $end
   $var wire  5 , rd_addr [4:0] $end
   $var wire  8 # rd_data [7:0] $end
   $var wire  8 [ result_o [7:0] $end
   $var wire  5 - rs_addr [4:0] $end
   $var wire  8 / rs_data [7:0] $end
   $var wire  1 * wfi_core $end
   $var wire  1 ) wr_en_rf $end
   $scope module alu0 $end
    $var wire  8 0 a_i [7:0] $end
    $var wire  8 / b_i [7:0] $end
    $var wire  4 % flags_o [3:0] $end
    $var wire  3 & op [2:0] $end
    $var wire  9 2 r_as [8:0] $end
    $var wire  8 [ r_o [7:0] $end
    $var wire  1 1 sub $end
    $var wire 10 ^ tmp [9:0] $end
   $upscope $end
   $scope module dec0 $end
    $var wire  1 ' a_imm_alu_o $end
    $var wire  1 3 ext_int_i $end
    $var wire  4 % flags_alu_i [3:0] $end
    $var wire  3 & func_alu_o [2:0] $end
    $var wire  1 \ halt_core_o $end
    $var wire  2 $ mode_pc_o [1:0] $end
    $var wire  6 ( op_code_i [5:0] $end
    $var wire  1 * wfi_core_o $end
    $var wire  1 ) wr_en_rf_o $end
   $upscope $end
   $scope module ed0 $end
    $var wire  1 W clk_i $end
    $var wire  1 3 edge_o $end
    $var wire  1 Z sig_i $end
    $var wire  3 4 stages [2:0] $end
   $upscope $end
   $scope module pc0 $end
    $var wire 10 U addr_o [9:0] $end
    $var wire  1 W clk_i $end
    $var wire  8 . data_i [7:0] $end
    $var wire  1 ] halt_i $end
    $var wire  2 $ mode_i [1:0] $end
    $var wire  1 X n_rst_i $end
    $var wire 10 V rtn_addr [9:0] $end
   $upscope $end
   $scope module rf0 $end
    $var wire  1 W clk_i $end
    $var wire  8 Y ext_data_i [7:0] $end
    $var wire  5 , rd_addr_i [4:0] $end
    $var wire  8 # rd_data_o [7:0] $end
    $var wire  8 5 regs(0) [7:0] $end
    $var wire  8 6 regs(1) [7:0] $end
    $var wire  8 ? regs(10) [7:0] $end
    $var wire  8 @ regs(11) [7:0] $end
    $var wire  8 A regs(12) [7:0] $end
    $var wire  8 B regs(13) [7:0] $end
    $var wire  8 C regs(14) [7:0] $end
    $var wire  8 D regs(15) [7:0] $end
    $var wire  8 E regs(16) [7:0] $end
    $var wire  8 F regs(17) [7:0] $end
    $var wire  8 G regs(18) [7:0] $end
    $var wire  8 H regs(19) [7:0] $end
    $var wire  8 7 regs(2) [7:0] $end
    $var wire  8 I regs(20) [7:0] $end
    $var wire  8 J regs(21) [7:0] $end
    $var wire  8 K regs(22) [7:0] $end
    $var wire  8 L regs(23) [7:0] $end
    $var wire  8 M regs(24) [7:0] $end
    $var wire  8 N regs(25) [7:0] $end
    $var wire  8 O regs(26) [7:0] $end
    $var wire  8 P regs(27) [7:0] $end
    $var wire  8 Q regs(28) [7:0] $end
    $var wire  8 R regs(29) [7:0] $end
    $var wire  8 8 regs(3) [7:0] $end
    $var wire  8 S regs(30) [7:0] $end
    $var wire  8 T regs(31) [7:0] $end
    $var wire  8 9 regs(4) [7:0] $end
    $var wire  8 : regs(5) [7:0] $end
    $var wire  8 ; regs(6) [7:0] $end
    $var wire  8 < regs(7) [7:0] $end
    $var wire  8 = regs(8) [7:0] $end
    $var wire  8 > regs(9) [7:0] $end
    $var wire  5 - rs_addr_i [4:0] $end
    $var wire  8 / rs_data_o [7:0] $end
    $var wire  8 [ wd_data_i [7:0] $end
    $var wire  1 ) wr_en_i $end
   $upscope $end
   $scope module rom0 $end
    $var wire 10 U addr_i [9:0] $end
    $var wire 24 + data_o [23:0] $end
   $upscope $end
  $upscope $end
  $scope module pico $end
   $var wire 32 _ A [31:0] $end
   $var wire 32 ` N [31:0] $end
   $var wire 32 a R [31:0] $end
   $var wire 32 ` W_IMM [31:0] $end
   $var wire 32 d W_INST [31:0] $end
   $var wire 32 b W_OPCODE [31:0] $end
   $var wire 32 c W_RADDR [31:0] $end
  $upscope $end
 $upscope $end
$enddefinitions $end


#1
b00000000 #
b11 $
b0000 %
b000 &
1'
b110000 (
0)
0*
b110000000000000000000101 +
b00000 ,
b00000 -
b00000101 .
b00000000 /
b00000101 0
01
b000000101 2
03
b000 4
b00000000 5
b00000000 6
b00000000 7
b00000000 8
b00000000 9
b00000000 :
b00000000 ;
b00000000 <
b00000000 =
b00000000 >
b00000000 ?
b00000000 @
b00000000 A
b00000000 B
b00000000 C
b00000000 D
b00000000 E
b00000000 F
b00000000 G
b00000000 H
b00000000 I
b00000000 J
b00000000 K
b00000000 L
b00000000 M
b00000000 N
b00000000 O
b00000000 P
b00000000 Q
b00000000 R
b00000000 S
b00000000 T
b0000000000 U
b0000000000 V
1W
0X
b00000011 Y
1Z
b00000101 [
0\
0]
b0000000000 ^
b00000000000000000000000000001010 _
b00000000000000000000000000001000 `
b00000000000000000000000000100000 a
b00000000000000000000000000000110 b
b00000000000000000000000000000101 c
b00000000000000000000000000011000 d
#2
0W
#3
b001 4
b00000011 S
1W
#4
0W
#5
13
b011 4
1W
#6
0W
#7
03
b111 4
1W
#8
0W
#9
1W
#10
0W
#11
b110 4
1W
0Z
#12
0W
1X
#13
b01 $
b1000 %
b001 &
b010001 (
1)
b010001010000000000000000 +
b01000 ,
b00000000 .
b00000000 0
b000000000 2
13
b100 4
b0000000101 U
b0000000001 V
1W
b00000000 [
#14
0W
#15
b11 $
b0000 %
b000 &
b110000 (
0)
b110000000000000000000001 +
b00000 ,
b00000001 .
b00000001 0
b000000001 2
03
b000 4
b0000000110 U
1W
b00000001 [
#16
0W
#17
b01 $
b1000 %
b010 &
b111111 (
1*
b111111000000000000000000 +
b00000000 .
b00000000 0
11
b000000000 2
b0000000001 U
b0000000111 V
1W
b00000000 [
1]
#18
0W
#19
1W
#20
0W
#21
b001 4
b00000010 S
1W
b00000010 Y
1Z
#22
0W
#23
0*
13
b011 4
1W
0]
#24
0W
#25
b0000 %
b001 &
b010001 (
1)
b010001001001111000000000 +
b00100 ,
b11110 -
b00000010 /
01
b000000010 2
03
b111 4
b0000000010 U
1W
b00000010 [
#26
0W
#27
b1000 %
b010 &
b111111 (
0)
1*
b111111000000000000000000 +
b00000 ,
b00000 -
b00000000 /
11
b000000000 2
b00000010 9
b0000000011 U
1W
b00000000 [
1]
#28
0W
#29
1W
#30
0W
#31
b110 4
1W
0Z
#32
0W
#33
0*
13
b100 4
1W
0]
#34
0W
#35
b00 $
b001 &
b110001 (
b110001000000000000000000 +
01
03
b000 4
b0000000100 U
1W
#36
0W
#37
b01 $
b0000 %
b010001 (
1)
b010001001100010000000000 +
b00110 ,
b00100 -
b00000010 /
b000000010 2
b0000000111 U
b0000000000 V
1W
b00000010 [
#38
0W
#39
b11 $
b000 &
b110000 (
0)
b110000000000000000000001 +
b00000 ,
b00000 -
b00000001 .
b00000000 /
b00000001 0
b000000001 2
b00000010 ;
b0000001000 U
1W
b00000001 [
#40
0W
#41
b01 $
b1000 %
b010 &
b111111 (
1*
b111111000000000000000000 +
b00000000 .
b00000000 0
11
b000000000 2
b001 4
b00000111 S
b0000000001 U
b0000001001 V
1W
b00000111 Y
1Z
b00000000 [
1]
#42
0W
#43
0*
13
b011 4
1W
0]
#44
0W
#45
b00000010 #
b0000 %
b001 &
b010001 (
1)
b010001001001111000000000 +
b00100 ,
b11110 -
b00000111 /
01
b000000111 2
03
b111 4
b0000000010 U
1W
b00000111 [
#46
0W
#47
b00000000 #
b1000 %
b010 &
b111111 (
0)
1*
b111111000000000000000000 +
b00000 ,
b00000 -
b00000000 /
11
b000000000 2
b00000111 9
b0000000011 U
1W
b00000000 [
1]
#48
0W
#49
1W
#50
0W
#51
b110 4
1W
0Z
#52
0W
#53
0*
13
b100 4
1W
0]
#54
0W
#55
b00 $
b001 &
b110001 (
b110001000000000000000000 +
01
03
b000 4
b0000000100 U
1W
#56
0W
#57
b01 $
b0000 %
b010001 (
1)
b010001001010010000000000 +
b00101 ,
b00100 -
b00000111 /
b000000111 2
b0000001001 U
b0000000000 V
1W
b00000111 [
#58
0W
#59
b00000010 #
b011 &
0'
b000011 (
b000011001100010100000000 +
b00110 ,
b00101 -
b00000010 0
b000001001 2
b00000111 :
b0000001010 U
1W
b00001110 [
#60
0W
#61
b00000000 #
b001 &
b000001 (
b000001010000011000000000 +
b01000 ,
b00110 -
b00001110 /
b00000000 0
b000001110 2
b001 4
b00001110 ;
b00001001 S
b0000001011 U
1W
b00001001 Y
1Z
#62
0W
#63
b11 $
b000 &
1'
b110000 (
0)
b110000000000000000000101 +
b00000 ,
b00000 -
b00000101 .
b00000000 /
b00000101 0
b000000101 2
13
b011 4
b00001110 =
b0000001100 U
1W
b00000101 [
#64
0W
#65
b00001110 #
b01 $
b1000 %
b001 &
b010001 (
1)
b010001010000000000000000 +
b01000 ,
b00000000 .
b00000000 0
b000000000 2
03
b111 4
b0000000101 U
b0000001101 V
1W
b00000000 [
#66
0W
#67
b00000000 #
b11 $
b0000 %
b000 &
b110000 (
0)
b110000000000000000000001 +
b00000 ,
b00000001 .
b00000001 0
b000000001 2
b00000000 =
b0000000110 U
1W
b00000001 [
#68
0W
#69
b01 $
b1000 %
b010 &
b111111 (
1*
b111111000000000000000000 +
b00000000 .
b00000000 0
11
b000000000 2
b0000000001 U
b0000000111 V
1W
b00000000 [
1]
#70
0W
#71
b110 4
1W
0Z
#72
0W
#73
0*
13
b100 4
1W
0]
#74
0W
#75
b00000111 #
b0000 %
b001 &
b010001 (
1)
b010001001001111000000000 +
b00100 ,
b11110 -
b00001001 /
01
b000001001 2
03
b000 4
b0000000010 U
1W
b00001001 [
#76
0W
#77
b00000000 #
b1000 %
b010 &
b111111 (
0)
1*
b111111000000000000000000 +
b00000 ,
b00000 -
b00000000 /
11
b000000000 2
b00001001 9
b0000000011 U
1W
b00000000 [
1]
#78
0W
#79
1W
#80
0W
#81
b001 4
b00001010 S
1W
b00001010 Y
1Z
#82
0W
#83
0*
13
b011 4
1W
0]
#84
0W
#85
b00 $
b001 &
b110001 (
b110001000000000000000000 +
01
03
b111 4
b0000000100 U
1W
#86
0W
#87
b00001110 #
b01 $
b0000 %
b010001 (
1)
b010001001100010000000000 +
b00110 ,
b00100 -
b00001001 /
b000001001 2
b0000000111 U
b0000000000 V
1W
b00001001 [
#88
0W
#89
b00000000 #
b11 $
b000 &
b110000 (
0)
b110000000000000000000001 +
b00000 ,
b00000 -
b00000001 .
b00000000 /
b00000001 0
b000000001 2
b00001001 ;
b0000001000 U
1W
b00000001 [
#90
0W
#91
b01 $
b1000 %
b010 &
b111111 (
1*
b111111000000000000000000 +
b00000000 .
b00000000 0
11
b000000000 2
b110 4
b0000000001 U
b0000001001 V
1W
0Z
b00000000 [
1]
#92
0W
#93
0*
13
b100 4
1W
0]
#94
0W
#95
b00001001 #
b0000 %
b001 &
b010001 (
1)
b010001001001111000000000 +
b00100 ,
b11110 -
b00001010 /
01
b000001010 2
03
b000 4
b0000000010 U
1W
b00001010 [
#96
0W
#97
b00000000 #
b1000 %
b010 &
b111111 (
0)
1*
b111111000000000000000000 +
b00000 ,
b00000 -
b00000000 /
11
b000000000 2
b00001010 9
b0000000011 U
1W
b00000000 [
1]
#98
0W
#99
1W
#100
0W
#101
b001 4
b00100000 S
1W
b00100000 Y
1Z
#102
0W
#103
0*
13
b011 4
1W
0]
#104
0W
#105
b00 $
b001 &
b110001 (
b110001000000000000000000 +
01
03
b111 4
b0000000100 U
1W
#106
0W
#107
b00000111 #
b01 $
b0000 %
b010001 (
1)
b010001001010010000000000 +
b00101 ,
b00100 -
b00001010 /
b000001010 2
b0000001001 U
b0000000000 V
1W
b00001010 [
#108
0W
#109
b00001001 #
b011 &
0'
b000011 (
b000011001100010100000000 +
b00110 ,
b00101 -
b00001001 0
b000010011 2
b00001010 :
b0000001010 U
1W
b01011010 [
#110
0W
#111
b00000000 #
b001 &
b000001 (
b000001010000011000000000 +
b01000 ,
b00110 -
b01011010 /
b00000000 0
b001011010 2
b110 4
b01011010 ;
b0000001011 U
1W
0Z
#112
0W
#113
b11 $
b000 &
1'
b110000 (
0)
b110000000000000000000101 +
b00000 ,
b00000 -
b00000101 .
b00000000 /
b00000101 0
b000000101 2
13
b100 4
b01011010 =
b0000001100 U
1W
b00000101 [
#114
0W
#115
b01011010 #
b01 $
b1000 %
b001 &
b010001 (
1)
b010001010000000000000000 +
b01000 ,
b00000000 .
b00000000 0
b000000000 2
03
b000 4
b0000000101 U
b0000001101 V
1W
b00000000 [
#116
0W
#117
b00000000 #
b11 $
b0000 %
b000 &
b110000 (
0)
b110000000000000000000001 +
b00000 ,
b00000001 .
b00000001 0
b000000001 2
b00000000 =
b0000000110 U
1W
b00000001 [
#118
0W
#119
b01 $
b1000 %
b010 &
b111111 (
1*
b111111000000000000000000 +
b00000000 .
b00000000 0
11
b000000000 2
b0000000001 U
b0000000111 V
1W
b00000000 [
1]
#120
0W
#121
b001 4
b11111110 S
1W
b11111110 Y
1Z
#122
0W
#123
0*
13
b011 4
1W
0]
#124
0W
#125
b00001010 #
b0100 %
b001 &
b010001 (
1)
b010001001001111000000000 +
b00100 ,
b11110 -
b11111110 /
01
b111111110 2
03
b111 4
b0000000010 U
1W
b11111110 [
#126
0W
#127
b00000000 #
b1000 %
b010 &
b111111 (
0)
1*
b111111000000000000000000 +
b00000 ,
b00000 -
b00000000 /
11
b000000000 2
b11111110 9
b0000000011 U
1W
b00000000 [
1]
#128
0W
#129
1W
#130
0W
#131
b110 4
1W
0Z
#132
0W
#133
0*
13
b100 4
1W
0]
#134
0W
#135
b00 $
b001 &
b110001 (
b110001000000000000000000 +
01
03
b000 4
b0000000100 U
1W
#136
0W
#137
b01011010 #
b01 $
b0100 %
b010001 (
1)
b010001001100010000000000 +
b00110 ,
b00100 -
b11111110 /
b111111110 2
b0000000111 U
b0000000000 V
1W
b11111110 [
#138
0W
#139
b00000000 #
b11 $
b0000 %
b000 &
b110000 (
0)
b110000000000000000000001 +
b00000 ,
b00000 -
b00000001 .
b00000000 /
b00000001 0
b000000001 2
b11111110 ;
b0000001000 U
1W
b00000001 [
#140
0W
#141
b01 $
b1000 %
b010 &
b111111 (
1*
b111111000000000000000000 +
b00000000 .
b00000000 0
11
b000000000 2
b001 4
b00000011 S
b0000000001 U
b0000001001 V
1W
b00000011 Y
1Z
b00000000 [
1]
#142
0W
#143
0*
13
b011 4
1W
0]
#144
0W
#145
b11111110 #
b0000 %
b001 &
b010001 (
1)
b010001001001111000000000 +
b00100 ,
b11110 -
b00000011 /
01
b000000011 2
03
b111 4
b0000000010 U
1W
b00000011 [
#146
0W
#147
b00000000 #
b1000 %
b010 &
b111111 (
0)
1*
b111111000000000000000000 +
b00000 ,
b00000 -
b00000000 /
11
b000000000 2
b00000011 9
b0000000011 U
1W
b00000000 [
1]
#148
0W
#149
1W
#150
0W
#151
b110 4
1W
0Z
#152
0W
#153
0*
13
b100 4
1W
0]
#154
0W
#155
b00 $
b001 &
b110001 (
b110001000000000000000000 +
01
03
b000 4
b0000000100 U
1W
#156
0W
#157
b00001010 #
b01 $
b0000 %
b010001 (
1)
b010001001010010000000000 +
b00101 ,
b00100 -
b00000011 /
b000000011 2
b0000001001 U
b0000000000 V
1W
b00000011 [
#158
0W
#159
b11111110 #
b0001 %
b011 &
0'
b000011 (
b000011001100010100000000 +
b00110 ,
b00101 -
b11111110 0
b000000001 2
b00000011 :
b0000001010 U
1W
b11111010 [
#160
0W
#161
b00000000 #
b0100 %
b001 &
b000001 (
b000001010000011000000000 +
b01000 ,
b00110 -
b11111010 /
b00000000 0
b111111010 2
b001 4
b11111010 ;
b00000101 S
b0000001011 U
1W
b00000101 Y
1Z
#162
0W
#163
b11 $
b0000 %
b000 &
1'
b110000 (
0)
b110000000000000000000101 +
b00000 ,
b00000 -
b00000101 .
b00000000 /
b00000101 0
b000000101 2
13
b011 4
b11111010 =
b0000001100 U
1W
b00000101 [
#164
0W
#165
b11111010 #
b01 $
b1000 %
b001 &
b010001 (
1)
b010001010000000000000000 +
b01000 ,
b00000000 .
b00000000 0
b000000000 2
03
b111 4
b0000000101 U
b0000001101 V
1W
b00000000 [
#166
0W
#167
b00000000 #
b11 $
b0000 %
b000 &
b110000 (
0)
b110000000000000000000001 +
b00000 ,
b00000001 .
b00000001 0
b000000001 2
b00000000 =
b0000000110 U
1W
b00000001 [
#168
0W
#169
b01 $
b1000 %
b010 &
b111111 (
1*
b111111000000000000000000 +
b00000000 .
b00000000 0
11
b000000000 2
b0000000001 U
b0000000111 V
1W
b00000000 [
1]
#170
0W
#171
b110 4
1W
0Z
#172
0W
#173
0*
13
b100 4
1W
0]
#174
0W
#175
b00000011 #
b0000 %
b001 &
b010001 (
1)
b010001001001111000000000 +
b00100 ,
b11110 -
b00000101 /
01
b000000101 2
03
b000 4
b0000000010 U
1W
b00000101 [
#176
0W
#177
b00000000 #
b1000 %
b010 &
b111111 (
0)
1*
b111111000000000000000000 +
b00000 ,
b00000 -
b00000000 /
11
b000000000 2
b00000101 9
b0000000011 U
1W
b00000000 [
1]
#178
0W
#179
1W
#180
0W
#181
b001 4
b00000110 S
1W
b00000110 Y
1Z
#182
0W
#183
0*
13
b011 4
1W
0]
#184
0W
#185
b00 $
b001 &
b110001 (
b110001000000000000000000 +
01
03
b111 4
b0000000100 U
1W
#186
0W
#187
b11111010 #
b01 $
b0000 %
b010001 (
1)
b010001001100010000000000 +
b00110 ,
b00100 -
b00000101 /
b000000101 2
b0000000111 U
b0000000000 V
1W
b00000101 [
#188
0W
#189
b00000000 #
b11 $
b000 &
b110000 (
0)
b110000000000000000000001 +
b00000 ,
b00000 -
b00000001 .
b00000000 /
b00000001 0
b000000001 2
b00000101 ;
b0000001000 U
1W
b00000001 [
#190
0W
#191
b01 $
b1000 %
b010 &
b111111 (
1*
b111111000000000000000000 +
b00000000 .
b00000000 0
11
b000000000 2
b110 4
b0000000001 U
b0000001001 V
1W
0Z
b00000000 [
1]
#192
0W
#193
0*
13
b100 4
1W
0]
#194
0W
#195
b00000101 #
b0000 %
b001 &
b010001 (
1)
b010001001001111000000000 +
b00100 ,
b11110 -
b00000110 /
01
b000000110 2
03
b000 4
b0000000010 U
1W
b00000110 [
#196
0W
#197
b00000000 #
b1000 %
b010 &
b111111 (
0)
1*
b111111000000000000000000 +
b00000 ,
b00000 -
b00000000 /
11
b000000000 2
b00000110 9
b0000000011 U
1W
b00000000 [
1]
#198
0W
#199
1W
#200
0W
#201
b001 4
b11010000 S
1W
b11010000 Y
1Z
#202
0W
#203
0*
13
b011 4
1W
0]
#204
0W
#205
b00 $
b001 &
b110001 (
b110001000000000000000000 +
01
03
b111 4
b0000000100 U
1W
#206
0W
#207
b00000011 #
b01 $
b0000 %
b010001 (
1)
b010001001010010000000000 +
b00101 ,
b00100 -
b00000110 /
b000000110 2
b0000001001 U
b0000000000 V
1W
b00000110 [
#208
0W
#209
b00000101 #
b011 &
0'
b000011 (
b000011001100010100000000 +
b00110 ,
b00101 -
b00000101 0
b000001011 2
b00000110 :
b0000001010 U
1W
b00011110 [
#210
0W
#211
b00000000 #
b001 &
b000001 (
b000001010000011000000000 +
b01000 ,
b00110 -
b00011110 /
b00000000 0
b000011110 2
b110 4
b00011110 ;
b0000001011 U
1W
0Z
#212
0W
#213
b11 $
b000 &
1'
b110000 (
0)
b110000000000000000000101 +
b00000 ,
b00000 -
b00000101 .
b00000000 /
b00000101 0
b000000101 2
13
b100 4
b00011110 =
b0000001100 U
1W
b00000101 [
#214
0W
#215
b00011110 #
b01 $
b1000 %
b001 &
b010001 (
1)
b010001010000000000000000 +
b01000 ,
b00000000 .
b00000000 0
b000000000 2
03
b000 4
b0000000101 U
b0000001101 V
1W
b00000000 [
#216
0W
#217
b00000000 #
b11 $
b0000 %
b000 &
b110000 (
0)
b110000000000000000000001 +
b00000 ,
b00000001 .
b00000001 0
b000000001 2
b00000000 =
b0000000110 U
1W
b00000001 [
#218
0W
#219
b01 $
b1000 %
b010 &
b111111 (
1*
b111111000000000000000000 +
b00000000 .
b00000000 0
11
b000000000 2
b0000000001 U
b0000000111 V
1W
b00000000 [
1]
#220
0W
#221
b001 4
b01100011 S
1W
b01100011 Y
1Z
#222
0W
#223
0*
13
b011 4
1W
0]
#224
0W
#225
b00000110 #
b0000 %
b001 &
b010001 (
1)
b010001001001111000000000 +
b00100 ,
b11110 -
b01100011 /
01
b001100011 2
03
b111 4
b0000000010 U
1W
b01100011 [
#226
0W
#227
b00000000 #
b1000 %
b010 &
b111111 (
0)
1*
b111111000000000000000000 +
b00000 ,
b00000 -
b00000000 /
11
b000000000 2
b01100011 9
b0000000011 U
1W
b00000000 [
1]
#228
0W
#229
1W
#230
0W
#231
b110 4
1W
0Z
#232
0W
#233
0*
13
b100 4
1W
0]
#234
0W
#235
b00 $
b001 &
b110001 (
b110001000000000000000000 +
01
03
b000 4
b0000000100 U
1W
#236
0W
#237
b00011110 #
b01 $
b0000 %
b010001 (
1)
b010001001100010000000000 +
b00110 ,
b00100 -
b01100011 /
b001100011 2
b0000000111 U
b0000000000 V
1W
b01100011 [
#238
0W
#239
b00000000 #
b11 $
b000 &
b110000 (
0)
b110000000000000000000001 +
b00000 ,
b00000 -
b00000001 .
b00000000 /
b00000001 0
b000000001 2
b01100011 ;
b0000001000 U
1W
b00000001 [
#240
0W
#241
b01 $
b1000 %
b010 &
b111111 (
1*
b111111000000000000000000 +
b00000000 .
b00000000 0
11
b000000000 2
b001 4
b01010101 S
b0000000001 U
b0000001001 V
1W
b01010101 Y
1Z
b00000000 [
1]
#242
0W
#243
0*
13
b011 4
1W
0]
#244
0W
#245
b01100011 #
b0000 %
b001 &
b010001 (
1)
b010001001001111000000000 +
b00100 ,
b11110 -
b01010101 /
01
b001010101 2
03
b111 4
b0000000010 U
1W
b01010101 [
#246
0W
#247
b00000000 #
b1000 %
b010 &
b111111 (
0)
1*
b111111000000000000000000 +
b00000 ,
b00000 -
b00000000 /
11
b000000000 2
b01010101 9
b0000000011 U
1W
b00000000 [
1]
#248
0W
#249
1W
#250
0W
#251
b110 4
1W
0Z
#252
0W
#253
0*
13
b100 4
1W
0]
#254
0W
#255
b00 $
b001 &
b110001 (
b110001000000000000000000 +
01
03
b000 4
b0000000100 U
1W
#256
0W
#257
b00000110 #
b01 $
b0000 %
b010001 (
1)
b010001001010010000000000 +
b00101 ,
b00100 -
b01010101 /
b001010101 2
b0000001001 U
b0000000000 V
1W
b01010101 [
#258
0W
#259
b01100011 #
b0110 %
b011 &
0'
b000011 (
b000011001100010100000000 +
b00110 ,
b00101 -
b01100011 0
b010111000 2
b01010101 :
b0000001010 U
1W
b11011111 [
#260
0W
#261
b00000000 #
b0100 %
b001 &
b000001 (
b000001010000011000000000 +
b01000 ,
b00110 -
b11011111 /
b00000000 0
b111011111 2
b001 4
b11011111 ;
b10000101 S
b0000001011 U
1W
b10000101 Y
1Z
#262
0W
#263
b11 $
b0000 %
b000 &
1'
b110000 (
0)
b110000000000000000000101 +
b00000 ,
b00000 -
b00000101 .
b00000000 /
b00000101 0
b000000101 2
13
b011 4
b11011111 =
b0000001100 U
1W
b00000101 [
#264
0W
#265
b11011111 #
b01 $
b1000 %
b001 &
b010001 (
1)
b010001010000000000000000 +
b01000 ,
b00000000 .
b00000000 0
b000000000 2
03
b111 4
b0000000101 U
b0000001101 V
1W
b00000000 [
#266
0W
#267
b00000000 #
b11 $
b0000 %
b000 &
b110000 (
0)
b110000000000000000000001 +
b00000 ,
b00000001 .
b00000001 0
b000000001 2
b00000000 =
b0000000110 U
1W
b00000001 [
#268
0W
#269
b01 $
b1000 %
b010 &
b111111 (
1*
b111111000000000000000000 +
b00000000 .
b00000000 0
11
b000000000 2
b0000000001 U
b0000000111 V
1W
b00000000 [
1]
#270
0W
#271
b110 4
1W
0Z
#272
0W
#273
0*
13
b100 4
1W
0]
#274
0W
#275
b01010101 #
b0100 %
b001 &
b010001 (
1)
b010001001001111000000000 +
b00100 ,
b11110 -
b10000101 /
01
b110000101 2
03
b000 4
b0000000010 U
1W
b10000101 [
#276
0W
#277
b00000000 #
b1000 %
b010 &
b111111 (
0)
1*
b111111000000000000000000 +
b00000 ,
b00000 -
b00000000 /
11
b000000000 2
b10000101 9
b0000000011 U
1W
b00000000 [
1]
#278
0W
#279
1W
#280
0W
#281
b001 4
b00010111 S
1W
b00010111 Y
1Z
#282
0W
#283
0*
13
b011 4
1W
0]
#284
0W
#285
b00 $
b001 &
b110001 (
b110001000000000000000000 +
01
03
b111 4
b0000000100 U
1W
#286
0W
#287
b11011111 #
b01 $
b0100 %
b010001 (
1)
b010001001100010000000000 +
b00110 ,
b00100 -
b10000101 /
b110000101 2
b0000000111 U
b0000000000 V
1W
b10000101 [
#288
0W
#289
b00000000 #
b11 $
b0000 %
b000 &
b110000 (
0)
b110000000000000000000001 +
b00000 ,
b00000 -
b00000001 .
b00000000 /
b00000001 0
b000000001 2
b10000101 ;
b0000001000 U
1W
b00000001 [
#290
0W
#291
b01 $
b1000 %
b010 &
b111111 (
1*
b111111000000000000000000 +
b00000000 .
b00000000 0
11
b000000000 2
b110 4
b0000000001 U
b0000001001 V
1W
0Z
b00000000 [
1]
#292
0W
#293
0*
13
b100 4
1W
0]
#294
0W
#295
b10000101 #
b0000 %
b001 &
b010001 (
1)
b010001001001111000000000 +
b00100 ,
b11110 -
b00010111 /
01
b000010111 2
03
b000 4
b0000000010 U
1W
b00010111 [
#296
0W
#297
b00000000 #
b1000 %
b010 &
b111111 (
0)
1*
b111111000000000000000000 +
b00000 ,
b00000 -
b00000000 /
11
b000000000 2
b00010111 9
b0000000011 U
1W
b00000000 [
1]
#298
0W
#299
1W
#300
0W
#301
b001 4
b01010110 S
1W
b01010110 Y
1Z
#302
0W
#303
0*
13
b011 4
1W
0]
#304
0W
#305
b00 $
b001 &
b110001 (
b110001000000000000000000 +
01
03
b111 4
b0000000100 U
1W
#306
0W
#307
b01010101 #
b01 $
b0000 %
b010001 (
1)
b010001001010010000000000 +
b00101 ,
b00100 -
b00010111 /
b000010111 2
b0000001001 U
b0000000000 V
1W
b00010111 [
#308
0W
#309
b10000101 #
b0100 %
b011 &
0'
b000011 (
b000011001100010100000000 +
b00110 ,
b00101 -
b10000101 0
b110011100 2
b00010111 :
b0000001010 U
1W
b11110011 [
#310
0W
#311
b00000000 #
b001 &
b000001 (
b000001010000011000000000 +
b01000 ,
b00110 -
b11110011 /
b00000000 0
b111110011 2
b110 4
b11110011 ;
b0000001011 U
1W
0Z
#312
0W
#313
b11 $
b0000 %
b000 &
1'
b110000 (
0)
b110000000000000000000101 +
b00000 ,
b00000 -
b00000101 .
b00000000 /
b00000101 0
b000000101 2
13
b100 4
b11110011 =
b0000001100 U
1W
b00000101 [
#314
0W
#315
b11110011 #
b01 $
b1000 %
b001 &
b010001 (
1)
b010001010000000000000000 +
b01000 ,
b00000000 .
b00000000 0
b000000000 2
03
b000 4
b0000000101 U
b0000001101 V
1W
b00000000 [
#316
0W
#317
b00000000 #
b11 $
b0000 %
b000 &
b110000 (
0)
b110000000000000000000001 +
b00000 ,
b00000001 .
b00000001 0
b000000001 2
b00000000 =
b0000000110 U
1W
b00000001 [
#318
0W
#319
b01 $
b1000 %
b010 &
b111111 (
1*
b111111000000000000000000 +
b00000000 .
b00000000 0
11
b000000000 2
b0000000001 U
b0000000111 V
1W
b00000000 [
1]
#320
0W
#321
b001 4
b00000000 S
1W
b00000000 Y
1Z
#322
0W
#323
0*
13
b011 4
1W
0]
#324
0W
#325
b00010111 #
b001 &
b010001 (
1)
b010001001001111000000000 +
b00100 ,
b11110 -
01
03
b111 4
b0000000010 U
1W
#326
0W
#327
b00000000 #
b010 &
b111111 (
0)
1*
b111111000000000000000000 +
b00000 ,
b00000 -
11
b00000000 9
b0000000011 U
1W
1]
#328
0W
#329
1W
#330
0W
#331
b110 4
1W
0Z
#332
0W
#333
0*
13
b100 4
1W
0]
#334
0W
#335
b00 $
b001 &
b110001 (
b110001000000000000000000 +
01
03
b000 4
b0000000100 U
1W
#336
0W
#337
b11110011 #
b01 $
b010001 (
1)
b010001001100010000000000 +
b00110 ,
b00100 -
b0000000111 U
b0000000000 V
1W
#338
0W
#339
b00000000 #
b11 $
b0000 %
b000 &
b110000 (
0)
b110000000000000000000001 +
b00000 ,
b00000 -
b00000001 .
b00000001 0
b000000001 2
b00000000 ;
b0000001000 U
1W
b00000001 [
#340
0W
#341
b01 $
b1000 %
b010 &
b111111 (
1*
b111111000000000000000000 +
b00000000 .
b00000000 0
11
b000000000 2
b001 4
b0000000001 U
b0000001001 V
1W
1Z
b00000000 [
1]
#342
0W
#343
0*
13
b011 4
1W
0]
#344
0W
#345
b001 &
b010001 (
1)
b010001001001111000000000 +
b00100 ,
b11110 -
01
03
b111 4
b0000000010 U
1W
#346
0W
#347
b010 &
b111111 (
0)
1*
b111111000000000000000000 +
b00000 ,
b00000 -
11
b0000000011 U
1W
1]
#348
0W
#349
1W
