test.vcd
$version Generated by VerilatedVcd $end
$date Sat Apr 10 01:11:13 2021
 $end
$timescale   1ns $end

 $scope module TOP $end
  $var wire  1 W clk_i $end
  $var wire  8 Y ext_data_i [7:0] $end
  $var wire  1 Z ext_int_i $end
  $var wire  1 \ halt_o $end
  $var wire  1 X n_rst_i $end
  $var wire  8 [ result_o [7:0] $end
  $scope module core $end
   $var wire  1 ' a_imm_alu $end
   $var wire 10 U addr_pc [9:0] $end
   $var wire  1 W clk_i $end
   $var wire  1 3 edge_trig $end
   $var wire  8 Y ext_data_i [7:0] $end
   $var wire  1 Z ext_int_i $end
   $var wire  4 % flags_alu [3:0] $end
   $var wire  3 & func_alu [2:0] $end
   $var wire  1 \ halt_o $end
   $var wire  8 . immediate [7:0] $end
   $var wire 24 + instruction [23:0] $end
   $var wire  2 $ mode_pc [1:0] $end
   $var wire  1 X n_rst_i $end
   $var wire  6 ( op_code [5:0] $end
   $var wire  5 , rd_addr [4:0] $end
   $var wire  8 # rd_data [7:0] $end
   $var wire  8 [ result_o [7:0] $end
   $var wire  5 - rs_addr [4:0] $end
   $var wire  8 / rs_data [7:0] $end
   $var wire  1 * wfi_core $end
   $var wire  1 ) wr_en_rf $end
   $scope module alu0 $end
    $var wire  8 0 a_i [7:0] $end
    $var wire  8 / b_i [7:0] $end
    $var wire  4 % flags_o [3:0] $end
    $var wire  3 & op [2:0] $end
    $var wire  9 2 r_as [8:0] $end
    $var wire  8 [ r_o [7:0] $end
    $var wire  1 1 sub $end
    $var wire 10 ^ tmp [9:0] $end
   $upscope $end
   $scope module dec0 $end
    $var wire  1 ' a_imm_alu_o $end
    $var wire  1 3 ext_int_i $end
    $var wire  4 % flags_alu_i [3:0] $end
    $var wire  3 & func_alu_o [2:0] $end
    $var wire  1 \ halt_core_o $end
    $var wire  2 $ mode_pc_o [1:0] $end
    $var wire  6 ( op_code_i [5:0] $end
    $var wire  1 * wfi_core_o $end
    $var wire  1 ) wr_en_rf_o $end
   $upscope $end
   $scope module ed0 $end
    $var wire  1 W clk_i $end
    $var wire  1 3 edge_o $end
    $var wire  1 Z sig_i $end
    $var wire  3 4 stages [2:0] $end
   $upscope $end
   $scope module pc0 $end
    $var wire 10 U addr_o [9:0] $end
    $var wire  1 W clk_i $end
    $var wire  8 . data_i [7:0] $end
    $var wire  1 ] halt_i $end
    $var wire  2 $ mode_i [1:0] $end
    $var wire  1 X n_rst_i $end
    $var wire 10 V rtn_addr [9:0] $end
   $upscope $end
   $scope module rf0 $end
    $var wire  1 W clk_i $end
    $var wire  8 Y ext_data_i [7:0] $end
    $var wire  5 , rd_addr_i [4:0] $end
    $var wire  8 # rd_data_o [7:0] $end
    $var wire  8 5 regs(0) [7:0] $end
    $var wire  8 6 regs(1) [7:0] $end
    $var wire  8 ? regs(10) [7:0] $end
    $var wire  8 @ regs(11) [7:0] $end
    $var wire  8 A regs(12) [7:0] $end
    $var wire  8 B regs(13) [7:0] $end
    $var wire  8 C regs(14) [7:0] $end
    $var wire  8 D regs(15) [7:0] $end
    $var wire  8 E regs(16) [7:0] $end
    $var wire  8 F regs(17) [7:0] $end
    $var wire  8 G regs(18) [7:0] $end
    $var wire  8 H regs(19) [7:0] $end
    $var wire  8 7 regs(2) [7:0] $end
    $var wire  8 I regs(20) [7:0] $end
    $var wire  8 J regs(21) [7:0] $end
    $var wire  8 K regs(22) [7:0] $end
    $var wire  8 L regs(23) [7:0] $end
    $var wire  8 M regs(24) [7:0] $end
    $var wire  8 N regs(25) [7:0] $end
    $var wire  8 O regs(26) [7:0] $end
    $var wire  8 P regs(27) [7:0] $end
    $var wire  8 Q regs(28) [7:0] $end
    $var wire  8 R regs(29) [7:0] $end
    $var wire  8 8 regs(3) [7:0] $end
    $var wire  8 S regs(30) [7:0] $end
    $var wire  8 T regs(31) [7:0] $end
    $var wire  8 9 regs(4) [7:0] $end
    $var wire  8 : regs(5) [7:0] $end
    $var wire  8 ; regs(6) [7:0] $end
    $var wire  8 < regs(7) [7:0] $end
    $var wire  8 = regs(8) [7:0] $end
    $var wire  8 > regs(9) [7:0] $end
    $var wire  5 - rs_addr_i [4:0] $end
    $var wire  8 / rs_data_o [7:0] $end
    $var wire  8 [ wd_data_i [7:0] $end
    $var wire  1 ) wr_en_i $end
   $upscope $end
   $scope module rom0 $end
    $var wire 10 U addr_i [9:0] $end
    $var wire 24 + data_o [23:0] $end
   $upscope $end
  $upscope $end
  $scope module pico $end
   $var wire 32 _ A [31:0] $end
   $var wire 32 ` N [31:0] $end
   $var wire 32 a R [31:0] $end
   $var wire 32 ` W_IMM [31:0] $end
   $var wire 32 d W_INST [31:0] $end
   $var wire 32 b W_OPCODE [31:0] $end
   $var wire 32 c W_RADDR [31:0] $end
  $upscope $end
 $upscope $end
$enddefinitions $end


#1
b00000000 #
b11 $
b0000 %
b000 &
1'
b110000 (
0)
0*
b110000000000000000000100 +
b00000 ,
b00000 -
b00000100 .
b00000000 /
b00000100 0
01
b000000100 2
03
b000 4
b00000000 5
b00000000 6
b00000000 7
b00000000 8
b00000000 9
b00000000 :
b00000000 ;
b00000000 <
b00000000 =
b00000000 >
b00000000 ?
b00000000 @
b00000000 A
b00000000 B
b00000000 C
b00000000 D
b00000000 E
b00000000 F
b00000000 G
b00000000 H
b00000000 I
b00000000 J
b00000000 K
b00000000 L
b00000000 M
b00000000 N
b00000000 O
b00000000 P
b00000000 Q
b00000000 R
b00000000 S
b00000000 T
b0000000000 U
b0000000000 V
1W
0X
b00000011 Y
1Z
b00000100 [
0\
0]
b0000000000 ^
b00000000000000000000000000001010 _
b00000000000000000000000000001000 `
b00000000000000000000000000100000 a
b00000000000000000000000000000110 b
b00000000000000000000000000000101 c
b00000000000000000000000000011000 d
#2
0W
#3
b001 4
b00000011 S
1W
#4
0W
#5
13
b011 4
1W
#6
0W
#7
03
b111 4
1W
#8
0W
#9
1W
#10
0W
#11
b110 4
1W
0Z
#12
0W
1X
#13
b01 $
b1000 %
b001 &
b010001 (
1)
b010001010000000000000000 +
b01000 ,
b00000000 .
b00000000 0
b000000000 2
13
b100 4
b0000000100 U
b0000000001 V
1W
b00000000 [
#14
0W
#15
b11 $
b0000 %
b000 &
b110000 (
0)
b110000000000000000000001 +
b00000 ,
b00000001 .
b00000001 0
b000000001 2
03
b000 4
b0000000101 U
1W
b00000001 [
#16
0W
#17
b01 $
b1000 %
b010 &
b111111 (
1*
b111111000000000000000000 +
b00000000 .
b00000000 0
11
b000000000 2
b0000000001 U
b0000000110 V
1W
b00000000 [
1]
#18
0W
#19
1W
#20
0W
#21
b001 4
b00000010 S
1W
b00000010 Y
1Z
#22
0W
#23
0*
13
b011 4
1W
0]
#24
0W
#25
b0000 %
b001 &
b010001 (
1)
b010001001001111000000000 +
b00100 ,
b11110 -
b00000010 /
01
b000000010 2
03
b111 4
b0000000010 U
1W
b00000010 [
#26
0W
#27
b00 $
b1000 %
b110001 (
0)
b110001000000000000000000 +
b00000 ,
b00000 -
b00000000 /
b000000000 2
b00000010 9
b0000000011 U
1W
b00000000 [
#28
0W
#29
b01 $
b0000 %
b010001 (
1)
b010001001100010000000000 +
b00110 ,
b00100 -
b00000010 /
b000000010 2
b0000000110 U
b0000000000 V
1W
b00000010 [
#30
0W
#31
b1000 %
b010 &
b111111 (
0)
1*
b111111000000000000000000 +
b00000 ,
b00000 -
b00000000 /
11
b000000000 2
b110 4
b00000010 ;
b0000000111 U
1W
0Z
b00000000 [
1]
#32
0W
#33
0*
13
b100 4
1W
0]
#34
0W
#35
b11 $
b0000 %
b000 &
b110000 (
b110000000000000000000001 +
b00000001 .
b00000001 0
01
b000000001 2
03
b000 4
b0000001000 U
1W
b00000001 [
#36
0W
#37
b01 $
b1000 %
b010 &
b111111 (
1*
b111111000000000000000000 +
b00000000 .
b00000000 0
11
b000000000 2
b0000000001 U
b0000001001 V
1W
b00000000 [
1]
#38
0W
#39
1W
#40
0W
#41
b001 4
b00000111 S
1W
b00000111 Y
1Z
#42
0W
#43
0*
13
b011 4
1W
0]
#44
0W
#45
b00000010 #
b0000 %
b001 &
b010001 (
1)
b010001001001111000000000 +
b00100 ,
b11110 -
b00000111 /
01
b000000111 2
03
b111 4
b0000000010 U
1W
b00000111 [
#46
0W
#47
b00000000 #
b00 $
b1000 %
b110001 (
0)
b110001000000000000000000 +
b00000 ,
b00000 -
b00000000 /
b000000000 2
b00000111 9
b0000000011 U
1W
b00000000 [
#48
0W
#49
b01 $
b0000 %
b010001 (
1)
b010001001010010000000000 +
b00101 ,
b00100 -
b00000111 /
b000000111 2
b0000001001 U
b0000000000 V
1W
b00000111 [
#50
0W
#51
b1000 %
b010 &
b111111 (
0)
1*
b111111000000000000000000 +
b00000 ,
b00000 -
b00000000 /
11
b000000000 2
b110 4
b00000111 :
b0000001010 U
1W
0Z
b00000000 [
1]
#52
0W
#53
0*
13
b100 4
1W
0]
#54
0W
#55
b00000010 #
b0000 %
b011 &
0'
b000011 (
1)
b000011001100010100000000 +
b00110 ,
b00101 -
b00000111 /
b00000010 0
01
b000001001 2
03
b000 4
b0000001011 U
1W
b00001110 [
#56
0W
#57
b00000000 #
b001 &
b000001 (
b000001010000011000000000 +
b01000 ,
b00110 -
b00001110 /
b00000000 0
b000001110 2
b00001110 ;
b0000001100 U
1W
#58
0W
#59
b11 $
b000 &
1'
b110000 (
0)
b110000000000000000000100 +
b00000 ,
b00000 -
b00000100 .
b00000000 /
b00000100 0
b000000100 2
b00001110 =
b0000001101 U
1W
b00000100 [
#60
0W
#61
b00001110 #
b01 $
b1000 %
b001 &
b010001 (
1)
b010001010000000000000000 +
b01000 ,
b00000000 .
b00000000 0
b000000000 2
b001 4
b00001001 S
b0000000100 U
b0000001110 V
1W
b00001001 Y
1Z
b00000000 [
#62
0W
#63
b00000000 #
b11 $
b0000 %
b000 &
b110000 (
0)
b110000000000000000000001 +
b00000 ,
b00000001 .
b00000001 0
b000000001 2
13
b011 4
b00000000 =
b0000000101 U
1W
b00000001 [
#64
0W
#65
b01 $
b1000 %
b010 &
b111111 (
1*
b111111000000000000000000 +
b00000000 .
b00000000 0
11
b000000000 2
03
b111 4
b0000000001 U
b0000000110 V
1W
b00000000 [
1]
#66
0W
#67
1W
#68
0W
#69
1W
#70
0W
#71
b110 4
1W
0Z
#72
0W
#73
0*
13
b100 4
1W
0]
#74
0W
#75
b00000111 #
b0000 %
b001 &
b010001 (
1)
b010001001001111000000000 +
b00100 ,
b11110 -
b00001001 /
01
b000001001 2
03
b000 4
b0000000010 U
1W
b00001001 [
#76
0W
#77
b00000000 #
b00 $
b1000 %
b110001 (
0)
b110001000000000000000000 +
b00000 ,
b00000 -
b00000000 /
b000000000 2
b00001001 9
b0000000011 U
1W
b00000000 [
#78
0W
#79
b00001110 #
b01 $
b0000 %
b010001 (
1)
b010001001100010000000000 +
b00110 ,
b00100 -
b00001001 /
b000001001 2
b0000000110 U
b0000000000 V
1W
b00001001 [
#80
0W
#81
b00000000 #
b1000 %
b010 &
b111111 (
0)
1*
b111111000000000000000000 +
b00000 ,
b00000 -
b00000000 /
11
b000000000 2
b001 4
b00001001 ;
b00001010 S
b0000000111 U
1W
b00001010 Y
1Z
b00000000 [
1]
#82
0W
#83
0*
13
b011 4
1W
0]
#84
0W
#85
b11 $
b0000 %
b000 &
b110000 (
b110000000000000000000001 +
b00000001 .
b00000001 0
01
b000000001 2
03
b111 4
b0000001000 U
1W
b00000001 [
#86
0W
#87
b01 $
b1000 %
b010 &
b111111 (
1*
b111111000000000000000000 +
b00000000 .
b00000000 0
11
b000000000 2
b0000000001 U
b0000001001 V
1W
b00000000 [
1]
#88
0W
#89
1W
#90
0W
#91
b110 4
1W
0Z
#92
0W
#93
0*
13
b100 4
1W
0]
#94
0W
#95
b00001001 #
b0000 %
b001 &
b010001 (
1)
b010001001001111000000000 +
b00100 ,
b11110 -
b00001010 /
01
b000001010 2
03
b000 4
b0000000010 U
1W
b00001010 [
#96
0W
#97
b00000000 #
b00 $
b1000 %
b110001 (
0)
b110001000000000000000000 +
b00000 ,
b00000 -
b00000000 /
b000000000 2
b00001010 9
b0000000011 U
1W
b00000000 [
#98
0W
#99
b00000111 #
b01 $
b0000 %
b010001 (
1)
b010001001010010000000000 +
b00101 ,
b00100 -
b00001010 /
b000001010 2
b0000001001 U
b0000000000 V
1W
b00001010 [
#100
0W
#101
b00000000 #
b1000 %
b010 &
b111111 (
0)
1*
b111111000000000000000000 +
b00000 ,
b00000 -
b00000000 /
11
b000000000 2
b001 4
b00001010 :
b00100000 S
b0000001010 U
1W
b00100000 Y
1Z
b00000000 [
1]
#102
0W
#103
0*
13
b011 4
1W
0]
#104
0W
#105
b00001001 #
b0000 %
b011 &
0'
b000011 (
1)
b000011001100010100000000 +
b00110 ,
b00101 -
b00001010 /
b00001001 0
01
b000010011 2
03
b111 4
b0000001011 U
1W
b01011010 [
#106
0W
#107
b00000000 #
b001 &
b000001 (
b000001010000011000000000 +
b01000 ,
b00110 -
b01011010 /
b00000000 0
b001011010 2
b01011010 ;
b0000001100 U
1W
#108
0W
#109
b11 $
b000 &
1'
b110000 (
0)
b110000000000000000000100 +
b00000 ,
b00000 -
b00000100 .
b00000000 /
b00000100 0
b000000100 2
b01011010 =
b0000001101 U
1W
b00000100 [
#110
0W
#111
b01011010 #
b01 $
b1000 %
b001 &
b010001 (
1)
b010001010000000000000000 +
b01000 ,
b00000000 .
b00000000 0
b000000000 2
b110 4
b0000000100 U
b0000001110 V
1W
0Z
b00000000 [
#112
0W
#113
b00000000 #
b11 $
b0000 %
b000 &
b110000 (
0)
b110000000000000000000001 +
b00000 ,
b00000001 .
b00000001 0
b000000001 2
13
b100 4
b00000000 =
b0000000101 U
1W
b00000001 [
#114
0W
#115
b01 $
b1000 %
b010 &
b111111 (
1*
b111111000000000000000000 +
b00000000 .
b00000000 0
11
b000000000 2
03
b000 4
b0000000001 U
b0000000110 V
1W
b00000000 [
1]
#116
0W
#117
1W
#118
0W
#119
1W
#120
0W
#121
b001 4
b11111110 S
1W
b11111110 Y
1Z
#122
0W
#123
0*
13
b011 4
1W
0]
#124
0W
#125
b00001010 #
b0100 %
b001 &
b010001 (
1)
b010001001001111000000000 +
b00100 ,
b11110 -
b11111110 /
01
b111111110 2
03
b111 4
b0000000010 U
1W
b11111110 [
#126
0W
#127
b00000000 #
b00 $
b1000 %
b110001 (
0)
b110001000000000000000000 +
b00000 ,
b00000 -
b00000000 /
b000000000 2
b11111110 9
b0000000011 U
1W
b00000000 [
#128
0W
#129
b01011010 #
b01 $
b0100 %
b010001 (
1)
b010001001100010000000000 +
b00110 ,
b00100 -
b11111110 /
b111111110 2
b0000000110 U
b0000000000 V
1W
b11111110 [
#130
0W
#131
b00000000 #
b1000 %
b010 &
b111111 (
0)
1*
b111111000000000000000000 +
b00000 ,
b00000 -
b00000000 /
11
b000000000 2
b110 4
b11111110 ;
b0000000111 U
1W
0Z
b00000000 [
1]
#132
0W
#133
0*
13
b100 4
1W
0]
#134
0W
#135
b11 $
b0000 %
b000 &
b110000 (
b110000000000000000000001 +
b00000001 .
b00000001 0
01
b000000001 2
03
b000 4
b0000001000 U
1W
b00000001 [
#136
0W
#137
b01 $
b1000 %
b010 &
b111111 (
1*
b111111000000000000000000 +
b00000000 .
b00000000 0
11
b000000000 2
b0000000001 U
b0000001001 V
1W
b00000000 [
1]
#138
0W
#139
1W
#140
0W
#141
b001 4
b00000011 S
1W
b00000011 Y
1Z
#142
0W
#143
0*
13
b011 4
1W
0]
#144
0W
#145
b11111110 #
b0000 %
b001 &
b010001 (
1)
b010001001001111000000000 +
b00100 ,
b11110 -
b00000011 /
01
b000000011 2
03
b111 4
b0000000010 U
1W
b00000011 [
#146
0W
#147
b00000000 #
b00 $
b1000 %
b110001 (
0)
b110001000000000000000000 +
b00000 ,
b00000 -
b00000000 /
b000000000 2
b00000011 9
b0000000011 U
1W
b00000000 [
#148
0W
#149
b00001010 #
b01 $
b0000 %
b010001 (
1)
b010001001010010000000000 +
b00101 ,
b00100 -
b00000011 /
b000000011 2
b0000001001 U
b0000000000 V
1W
b00000011 [
#150
0W
#151
b00000000 #
b1000 %
b010 &
b111111 (
0)
1*
b111111000000000000000000 +
b00000 ,
b00000 -
b00000000 /
11
b000000000 2
b110 4
b00000011 :
b0000001010 U
1W
0Z
b00000000 [
1]
#152
0W
#153
0*
13
b100 4
1W
0]
#154
0W
#155
b11111110 #
b0001 %
b011 &
0'
b000011 (
1)
b000011001100010100000000 +
b00110 ,
b00101 -
b00000011 /
b11111110 0
01
b000000001 2
03
b000 4
b0000001011 U
1W
b11111010 [
#156
0W
#157
b00000000 #
b0100 %
b001 &
b000001 (
b000001010000011000000000 +
b01000 ,
b00110 -
b11111010 /
b00000000 0
b111111010 2
b11111010 ;
b0000001100 U
1W
#158
0W
#159
b11 $
b0000 %
b000 &
1'
b110000 (
0)
b110000000000000000000100 +
b00000 ,
b00000 -
b00000100 .
b00000000 /
b00000100 0
b000000100 2
b11111010 =
b0000001101 U
1W
b00000100 [
#160
0W
#161
b11111010 #
b01 $
b1000 %
b001 &
b010001 (
1)
b010001010000000000000000 +
b01000 ,
b00000000 .
b00000000 0
b000000000 2
b001 4
b00000101 S
b0000000100 U
b0000001110 V
1W
b00000101 Y
1Z
b00000000 [
#162
0W
#163
b00000000 #
b11 $
b0000 %
b000 &
b110000 (
0)
b110000000000000000000001 +
b00000 ,
b00000001 .
b00000001 0
b000000001 2
13
b011 4
b00000000 =
b0000000101 U
1W
b00000001 [
#164
0W
#165
b01 $
b1000 %
b010 &
b111111 (
1*
b111111000000000000000000 +
b00000000 .
b00000000 0
11
b000000000 2
03
b111 4
b0000000001 U
b0000000110 V
1W
b00000000 [
1]
#166
0W
#167
1W
#168
0W
#169
1W
#170
0W
#171
b110 4
1W
0Z
#172
0W
#173
0*
13
b100 4
1W
0]
#174
0W
#175
b00000011 #
b0000 %
b001 &
b010001 (
1)
b010001001001111000000000 +
b00100 ,
b11110 -
b00000101 /
01
b000000101 2
03
b000 4
b0000000010 U
1W
b00000101 [
#176
0W
#177
b00000000 #
b00 $
b1000 %
b110001 (
0)
b110001000000000000000000 +
b00000 ,
b00000 -
b00000000 /
b000000000 2
b00000101 9
b0000000011 U
1W
b00000000 [
#178
0W
#179
b11111010 #
b01 $
b0000 %
b010001 (
1)
b010001001100010000000000 +
b00110 ,
b00100 -
b00000101 /
b000000101 2
b0000000110 U
b0000000000 V
1W
b00000101 [
#180
0W
#181
b00000000 #
b1000 %
b010 &
b111111 (
0)
1*
b111111000000000000000000 +
b00000 ,
b00000 -
b00000000 /
11
b000000000 2
b001 4
b00000101 ;
b00000110 S
b0000000111 U
1W
b00000110 Y
1Z
b00000000 [
1]
#182
0W
#183
0*
13
b011 4
1W
0]
#184
0W
#185
b11 $
b0000 %
b000 &
b110000 (
b110000000000000000000001 +
b00000001 .
b00000001 0
01
b000000001 2
03
b111 4
b0000001000 U
1W
b00000001 [
#186
0W
#187
b01 $
b1000 %
b010 &
b111111 (
1*
b111111000000000000000000 +
b00000000 .
b00000000 0
11
b000000000 2
b0000000001 U
b0000001001 V
1W
b00000000 [
1]
#188
0W
#189
1W
#190
0W
#191
b110 4
1W
0Z
#192
0W
#193
0*
13
b100 4
1W
0]
#194
0W
#195
b00000101 #
b0000 %
b001 &
b010001 (
1)
b010001001001111000000000 +
b00100 ,
b11110 -
b00000110 /
01
b000000110 2
03
b000 4
b0000000010 U
1W
b00000110 [
#196
0W
#197
b00000000 #
b00 $
b1000 %
b110001 (
0)
b110001000000000000000000 +
b00000 ,
b00000 -
b00000000 /
b000000000 2
b00000110 9
b0000000011 U
1W
b00000000 [
#198
0W
#199
b00000011 #
b01 $
b0000 %
b010001 (
1)
b010001001010010000000000 +
b00101 ,
b00100 -
b00000110 /
b000000110 2
b0000001001 U
b0000000000 V
1W
b00000110 [
#200
0W
#201
b00000000 #
b1000 %
b010 &
b111111 (
0)
1*
b111111000000000000000000 +
b00000 ,
b00000 -
b00000000 /
11
b000000000 2
b001 4
b00000110 :
b01100000 S
b0000001010 U
1W
b01100000 Y
1Z
b00000000 [
1]
#202
0W
#203
0*
13
b011 4
1W
0]
#204
0W
#205
b00000101 #
b0000 %
b011 &
0'
b000011 (
1)
b000011001100010100000000 +
b00110 ,
b00101 -
b00000110 /
b00000101 0
01
b000001011 2
03
b111 4
b0000001011 U
1W
b00011110 [
#206
0W
#207
b00000000 #
b001 &
b000001 (
b000001010000011000000000 +
b01000 ,
b00110 -
b00011110 /
b00000000 0
b000011110 2
b00011110 ;
b0000001100 U
1W
#208
0W
#209
b11 $
b000 &
1'
b110000 (
0)
b110000000000000000000100 +
b00000 ,
b00000 -
b00000100 .
b00000000 /
b00000100 0
b000000100 2
b00011110 =
b0000001101 U
1W
b00000100 [
#210
0W
#211
b00011110 #
b01 $
b1000 %
b001 &
b010001 (
1)
b010001010000000000000000 +
b01000 ,
b00000000 .
b00000000 0
b000000000 2
b110 4
b0000000100 U
b0000001110 V
1W
0Z
b00000000 [
#212
0W
#213
b00000000 #
b11 $
b0000 %
b000 &
b110000 (
0)
b110000000000000000000001 +
b00000 ,
b00000001 .
b00000001 0
b000000001 2
13
b100 4
b00000000 =
b0000000101 U
1W
b00000001 [
#214
0W
#215
b01 $
b1000 %
b010 &
b111111 (
1*
b111111000000000000000000 +
b00000000 .
b00000000 0
11
b000000000 2
03
b000 4
b0000000001 U
b0000000110 V
1W
b00000000 [
1]
#216
0W
#217
1W
#218
0W
#219
1W
#220
0W
#221
b001 4
b11010011 S
1W
b11010011 Y
1Z
#222
0W
#223
0*
13
b011 4
1W
0]
#224
0W
#225
b00000110 #
b0100 %
b001 &
b010001 (
1)
b010001001001111000000000 +
b00100 ,
b11110 -
b11010011 /
01
b111010011 2
03
b111 4
b0000000010 U
1W
b11010011 [
#226
0W
#227
b00000000 #
b00 $
b1000 %
b110001 (
0)
b110001000000000000000000 +
b00000 ,
b00000 -
b00000000 /
b000000000 2
b11010011 9
b0000000011 U
1W
b00000000 [
#228
0W
#229
b00011110 #
b01 $
b0100 %
b010001 (
1)
b010001001100010000000000 +
b00110 ,
b00100 -
b11010011 /
b111010011 2
b0000000110 U
b0000000000 V
1W
b11010011 [
#230
0W
#231
b00000000 #
b1000 %
b010 &
b111111 (
0)
1*
b111111000000000000000000 +
b00000 ,
b00000 -
b00000000 /
11
b000000000 2
b110 4
b11010011 ;
b0000000111 U
1W
0Z
b00000000 [
1]
#232
0W
#233
0*
13
b100 4
1W
0]
#234
0W
#235
b11 $
b0000 %
b000 &
b110000 (
b110000000000000000000001 +
b00000001 .
b00000001 0
01
b000000001 2
03
b000 4
b0000001000 U
1W
b00000001 [
#236
0W
#237
b01 $
b1000 %
b010 &
b111111 (
1*
b111111000000000000000000 +
b00000000 .
b00000000 0
11
b000000000 2
b0000000001 U
b0000001001 V
1W
b00000000 [
1]
#238
0W
#239
1W
#240
0W
#241
b001 4
b00001000 S
1W
b00001000 Y
1Z
#242
0W
#243
0*
13
b011 4
1W
0]
#244
0W
#245
b11010011 #
b0000 %
b001 &
b010001 (
1)
b010001001001111000000000 +
b00100 ,
b11110 -
b00001000 /
01
b000001000 2
03
b111 4
b0000000010 U
1W
b00001000 [
#246
0W
#247
b00000000 #
b00 $
b1000 %
b110001 (
0)
b110001000000000000000000 +
b00000 ,
b00000 -
b00000000 /
b000000000 2
b00001000 9
b0000000011 U
1W
b00000000 [
#248
0W
#249
b00000110 #
b01 $
b0000 %
b010001 (
1)
b010001001010010000000000 +
b00101 ,
b00100 -
b00001000 /
b000001000 2
b0000001001 U
b0000000000 V
1W
b00001000 [
#250
0W
#251
b00000000 #
b1000 %
b010 &
b111111 (
0)
1*
b111111000000000000000000 +
b00000 ,
b00000 -
b00000000 /
11
b000000000 2
b110 4
b00001000 :
b0000001010 U
1W
0Z
b00000000 [
1]
#252
0W
#253
0*
13
b100 4
1W
0]
#254
0W
#255
b11010011 #
b0100 %
b011 &
0'
b000011 (
1)
b000011001100010100000000 +
b00110 ,
b00101 -
b00001000 /
b11010011 0
01
b111011011 2
03
b000 4
b0000001011 U
1W
b10011000 [
#256
0W
#257
b00000000 #
b001 &
b000001 (
b000001010000011000000000 +
b01000 ,
b00110 -
b10011000 /
b00000000 0
b110011000 2
b10011000 ;
b0000001100 U
1W
#258
0W
#259
b11 $
b0000 %
b000 &
1'
b110000 (
0)
b110000000000000000000100 +
b00000 ,
b00000 -
b00000100 .
b00000000 /
b00000100 0
b000000100 2
b10011000 =
b0000001101 U
1W
b00000100 [
#260
0W
#261
b10011000 #
b01 $
b1000 %
b001 &
b010001 (
1)
b010001010000000000000000 +
b01000 ,
b00000000 .
b00000000 0
b000000000 2
b001 4
b10110010 S
b0000000100 U
b0000001110 V
1W
b10110010 Y
1Z
b00000000 [
#262
0W
#263
b00000000 #
b11 $
b0000 %
b000 &
b110000 (
0)
b110000000000000000000001 +
b00000 ,
b00000001 .
b00000001 0
b000000001 2
13
b011 4
b00000000 =
b0000000101 U
1W
b00000001 [
#264
0W
#265
b01 $
b1000 %
b010 &
b111111 (
1*
b111111000000000000000000 +
b00000000 .
b00000000 0
11
b000000000 2
03
b111 4
b0000000001 U
b0000000110 V
1W
b00000000 [
1]
#266
0W
#267
1W
#268
0W
#269
1W
#270
0W
#271
b110 4
1W
0Z
#272
0W
#273
0*
13
b100 4
1W
0]
#274
0W
#275
b00001000 #
b0100 %
b001 &
b010001 (
1)
b010001001001111000000000 +
b00100 ,
b11110 -
b10110010 /
01
b110110010 2
03
b000 4
b0000000010 U
1W
b10110010 [
#276
0W
#277
b00000000 #
b00 $
b1000 %
b110001 (
0)
b110001000000000000000000 +
b00000 ,
b00000 -
b00000000 /
b000000000 2
b10110010 9
b0000000011 U
1W
b00000000 [
#278
0W
#279
b10011000 #
b01 $
b0100 %
b010001 (
1)
b010001001100010000000000 +
b00110 ,
b00100 -
b10110010 /
b110110010 2
b0000000110 U
b0000000000 V
1W
b10110010 [
#280
0W
#281
b00000000 #
b1000 %
b010 &
b111111 (
0)
1*
b111111000000000000000000 +
b00000 ,
b00000 -
b00000000 /
11
b000000000 2
b001 4
b10110010 ;
b00101011 S
b0000000111 U
1W
b00101011 Y
1Z
b00000000 [
1]
#282
0W
#283
0*
13
b011 4
1W
0]
#284
0W
#285
b11 $
b0000 %
b000 &
b110000 (
b110000000000000000000001 +
b00000001 .
b00000001 0
01
b000000001 2
03
b111 4
b0000001000 U
1W
b00000001 [
#286
0W
#287
b01 $
b1000 %
b010 &
b111111 (
1*
b111111000000000000000000 +
b00000000 .
b00000000 0
11
b000000000 2
b0000000001 U
b0000001001 V
1W
b00000000 [
1]
#288
0W
#289
1W
#290
0W
#291
b110 4
1W
0Z
#292
0W
#293
0*
13
b100 4
1W
0]
#294
0W
#295
b10110010 #
b0000 %
b001 &
b010001 (
1)
b010001001001111000000000 +
b00100 ,
b11110 -
b00101011 /
01
b000101011 2
03
b000 4
b0000000010 U
1W
b00101011 [
#296
0W
#297
b00000000 #
b00 $
b1000 %
b110001 (
0)
b110001000000000000000000 +
b00000 ,
b00000 -
b00000000 /
b000000000 2
b00101011 9
b0000000011 U
1W
b00000000 [
#298
0W
#299
b00001000 #
b01 $
b0000 %
b010001 (
1)
b010001001010010000000000 +
b00101 ,
b00100 -
b00101011 /
b000101011 2
b0000001001 U
b0000000000 V
1W
b00101011 [
#300
0W
#301
b00000000 #
b1000 %
b010 &
b111111 (
0)
1*
b111111000000000000000000 +
b00000 ,
b00000 -
b00000000 /
11
b000000000 2
b001 4
b00101011 :
b01010110 S
b0000001010 U
1W
b01010110 Y
1Z
b00000000 [
1]
#302
0W
#303
0*
13
b011 4
1W
0]
#304
0W
#305
b10110010 #
b0100 %
b011 &
0'
b000011 (
1)
b000011001100010100000000 +
b00110 ,
b00101 -
b00101011 /
b10110010 0
01
b111011101 2
03
b111 4
b0000001011 U
1W
b11100110 [
#306
0W
#307
b00000000 #
b001 &
b000001 (
b000001010000011000000000 +
b01000 ,
b00110 -
b11100110 /
b00000000 0
b111100110 2
b11100110 ;
b0000001100 U
1W
#308
0W
#309
b11 $
b0000 %
b000 &
1'
b110000 (
0)
b110000000000000000000100 +
b00000 ,
b00000 -
b00000100 .
b00000000 /
b00000100 0
b000000100 2
b11100110 =
b0000001101 U
1W
b00000100 [
#310
0W
#311
b11100110 #
b01 $
b1000 %
b001 &
b010001 (
1)
b010001010000000000000000 +
b01000 ,
b00000000 .
b00000000 0
b000000000 2
b110 4
b0000000100 U
b0000001110 V
1W
0Z
b00000000 [
#312
0W
#313
b00000000 #
b11 $
b0000 %
b000 &
b110000 (
0)
b110000000000000000000001 +
b00000 ,
b00000001 .
b00000001 0
b000000001 2
13
b100 4
b00000000 =
b0000000101 U
1W
b00000001 [
#314
0W
#315
b01 $
b1000 %
b010 &
b111111 (
1*
b111111000000000000000000 +
b00000000 .
b00000000 0
11
b000000000 2
03
b000 4
b0000000001 U
b0000000110 V
1W
b00000000 [
1]
#316
0W
#317
1W
#318
0W
#319
1W
#320
0W
#321
b001 4
b00000000 S
1W
b00000000 Y
1Z
#322
0W
#323
0*
13
b011 4
1W
0]
#324
0W
#325
b00101011 #
b001 &
b010001 (
1)
b010001001001111000000000 +
b00100 ,
b11110 -
01
03
b111 4
b0000000010 U
1W
#326
0W
#327
b00000000 #
b00 $
b110001 (
0)
b110001000000000000000000 +
b00000 ,
b00000 -
b00000000 9
b0000000011 U
1W
#328
0W
#329
b11100110 #
b01 $
b010001 (
1)
b010001001100010000000000 +
b00110 ,
b00100 -
b0000000110 U
b0000000000 V
1W
#330
0W
