affine/test.vcd
$version Generated by VerilatedVcd $end
$date Mon May 10 11:56:31 2021
 $end
$timescale   1ns $end

 $scope module TOP $end
  $var wire  1 E clk_i $end
  $var wire  8 G ext_data_i [7:0] $end
  $var wire  8 H ext_data_o [7:0] $end
  $var wire  1 J halt_o $end
  $var wire  1 F n_rst_i $end
  $var wire  2 I prog_addr_o [1:0] $end
  $scope module affine $end
   $var wire 32 L A [31:0] $end
   $var wire 32 M N [31:0] $end
   $var wire 32 M W_I1 [31:0] $end
   $var wire 32 M W_I2 [31:0] $end
   $var wire 32 O W_INST [31:0] $end
   $var wire 32 N W_OP [31:0] $end
   $var wire 32 L W_RD [31:0] $end
   $var wire 32 L W_RS [31:0] $end
  $upscope $end
  $scope module core $end
   $var wire  8 ? acc1_data [7:0] $end
   $var wire  8 @ acc2_data [7:0] $end
   $var wire  8 1 acc2_fb [7:0] $end
   $var wire  6 . alu_op [5:0] $end
   $var wire  1 ' clk_h $end
   $var wire  1 E clk_i $end
   $var wire  8 G ext_data_i [7:0] $end
   $var wire  8 H ext_data_o [7:0] $end
   $var wire  1 = halt_flag $end
   $var wire  1 J halt_o $end
   $var wire  1 < halt_r $end
   $var wire  8 , imm1_data [7:0] $end
   $var wire  8 - imm2_data [7:0] $end
   $var wire  1 F n_rst_i $end
   $var wire  2 > pc_addr [1:0] $end
   $var wire  2 I prog_addr_o [1:0] $end
   $var wire  2 + rd_addr [1:0] $end
   $var wire  8 0 rd_data [7:0] $end
   $var wire 26 ) rom_data [25:0] $end
   $var wire  2 * rs_addr [1:0] $end
   $var wire  8 ( rs_data [7:0] $end
   $var wire  8 / wd_data [7:0] $end
   $scope module a0 $end
    $var wire  8 ( a [7:0] $end
    $var wire  8 ? acc1_i [7:0] $end
    $var wire  8 @ acc2_i [7:0] $end
    $var wire  8 5 add1_a [7:0] $end
    $var wire  8 : add1_b [7:0] $end
    $var wire  8 8 add2_a [7:0] $end
    $var wire  8 ; add2_b [7:0] $end
    $var wire  8 0 b [7:0] $end
    $var wire  8 , c [7:0] $end
    $var wire  6 . ctrl [5:0] $end
    $var wire  8 - d [7:0] $end
    $var wire  8 3 mul1_a [7:0] $end
    $var wire  8 4 mul1_b [7:0] $end
    $var wire 16 6 mul1_r [15:0] $end
    $var wire  8 5 mul1_rs [7:0] $end
    $var wire  8 7 mul2_a [7:0] $end
    $var wire  8 - mul2_b [7:0] $end
    $var wire 16 9 mul2_r [15:0] $end
    $var wire  8 8 mul2_rs [7:0] $end
    $var wire  8 / r1 [7:0] $end
    $var wire  8 1 r2 [7:0] $end
   $upscope $end
   $scope module c0 $end
    $var wire  2 > addr_o [1:0] $end
    $var wire  1 ' clk_i $end
    $var wire  1 F n_rst_i $end
   $upscope $end
   $scope module f0 $end
    $var wire  8 ? acc1_o [7:0] $end
    $var wire  8 1 acc2_i [7:0] $end
    $var wire  8 @ acc2_o [7:0] $end
    $var wire  1 ' clk_i $end
    $var wire  8 G ext_data_i [7:0] $end
    $var wire  2 + rd_addr_i [1:0] $end
    $var wire  8 0 rd_data_o [7:0] $end
    $var wire  8 A regs(0) [7:0] $end
    $var wire  8 B regs(1) [7:0] $end
    $var wire  8 C regs(2) [7:0] $end
    $var wire  8 D regs(3) [7:0] $end
    $var wire  2 * rs_addr_i [1:0] $end
    $var wire  8 ( rs_data_o [7:0] $end
    $var wire  8 / wd_data_i [7:0] $end
    $var wire  1 2 wdual_i $end
   $upscope $end
   $scope module r0 $end
    $var wire  2 > addr_i [1:0] $end
    $var wire 26 ) data_o [25:0] $end
    $var wire  1 K refresh_clk $end
    $var wire 26 # rom(0) [25:0] $end
    $var wire 26 $ rom(1) [25:0] $end
    $var wire 26 % rom(2) [25:0] $end
    $var wire 26 & rom(3) [25:0] $end
   $upscope $end
  $upscope $end
 $upscope $end
$enddefinitions $end


#1
b01010000000001010011101100 #
b11100100000100000001100000 $
b11100101010110000011000000 %
b00100001000000000100000000 &
1'
b11001110 (
b11100100000100000001100000 )
b00 *
b00 +
b01000000 ,
b01100000 -
b111001 .
b11111011 /
b11001110 0
b11000110 1
12
b11001110 3
b01000000 4
b11100111 5
b1111001110000000 6
b11001110 7
b11011010 8
b1110110101000000 9
b00010100 :
b11101100 ;
0<
0=
b01 >
b00010100 ?
b11101100 @
b11001110 A
b00000000 B
b00010100 C
b11101100 D
1E
1F
b11001110 G
b00010100 H
b01 I
0J
0K
b00000000000000000000000000000010 L
b00000000000000000000000000001000 M
b00000000000000000000000000000110 N
b00000000000000000000000000011010 O
#2
0'
0E
#3
1'
b00000000 (
b11100101010110000011000000 )
b01 *
b01 +
b01100000 ,
b11000000 -
b00000000 0
b00000000 3
b01100000 4
b00000000 5
b0000000000000000 6
b00000000 7
b00000000 8
b0000000000000000 9
b11111011 :
b11000110 ;
b10 >
b11111011 ?
b11000110 @
b11111011 C
b11000110 D
1E
b11111011 H
b10 I
#4
0'
0E
#5
1'
b11001110 (
b00100001000000000100000000 )
b00 *
b00000001 ,
b00000000 -
b001000 .
b11001110 /
b00000000 1
02
b11001110 3
b00000001 4
b11001110 5
b1111111111001110 6
b00000000 :
b00000000 ;
1=
b11 >
1E
b11 I
#6
0'
0E
#7
b01010000000001010011101100 )
b00 +
b00010100 ,
b11101100 -
b010100 .
b00010100 /
b11001110 0
b11101100 1
12
b00000001 3
b00010100 4
b00010100 5
b0000000000010100 6
b00000001 7
b11101100 8
b1111111111101100 9
1<
0=
b00 >
b11001110 B
1E
b00 I
1J
#8
0<
0E
0F
b11000110 H
0J
#9
1'
b11100100000100000001100000 )
b01000000 ,
b01100000 -
b111001 .
b11111011 /
b11000110 1
b11001110 3
b01000000 4
b11100111 5
b1111001110000000 6
b11001110 7
b11011010 8
b1110110101000000 9
b00010100 :
b11101100 ;
b01 >
b00010100 ?
b11101100 @
b00010100 C
b11101100 D
1E
1F
b00010100 H
b01 I
#10
0'
0E
#11
1'
b11100101010110000011000000 )
b01 *
b01 +
b01100000 ,
b11000000 -
b11010101 /
b11011111 1
b01100000 4
b11011010 5
b1110110101000000 6
b00011001 8
b0000110010000000 9
b11111011 :
b11000110 ;
b10 >
b11111011 ?
b11000110 @
b11111011 C
b11000110 D
1E
b11111011 H
b10 I
#12
0'
0E
#13
1'
b00100001000000000100000000 )
b00 *
b00000001 ,
b00000000 -
b001000 .
b11001110 /
b00000000 1
02
b00000001 4
b11001110 5
b1111111111001110 6
b00000000 8
b0000000000000000 9
b00000000 :
b00000000 ;
1=
b11 >
b11010101 ?
b11011111 @
b11010101 C
b11011111 D
1E
b11010101 H
b11 I
#14
0'
0E
#15
b01010000000001010011101100 )
b00 +
b00010100 ,
b11101100 -
b010100 .
b00010100 /
b11101100 1
12
b00000001 3
b00010100 4
b00010100 5
b0000000000010100 6
b00000001 7
b11101100 8
b1111111111101100 9
1<
0=
b00 >
1E
b00 I
1J
#16
0<
0E
0F
b11011111 H
0J
#17
1'
b01100100 (
b11100100000100000001100000 )
b01000000 ,
b01100000 -
b111001 .
b01000110 /
b01100100 0
b00110111 1
b01100100 3
b01000000 4
b00110010 5
b0001100100000000 6
b01100100 7
b01001011 8
b0010010110000000 9
b00010100 :
b11101100 ;
b01 >
b00010100 ?
b11101100 @
b01100100 A
b00010100 C
b11101100 D
1E
1F
b01100100 G
b00010100 H
b01 I
#18
0'
0E
#19
1'
b11001110 (
b11100101010110000011000000 )
b01 *
b01 +
b01100000 ,
b11000000 -
b00100000 /
b11001110 0
b01010000 1
b11001110 3
b01100000 4
b11011010 5
b1110110101000000 6
b11001110 7
b00011001 8
b0000110010000000 9
b01000110 :
b00110111 ;
b10 >
b01000110 ?
b00110111 @
b01000110 C
b00110111 D
1E
b01000110 H
b10 I
#20
0'
0E
#21
1'
b01100100 (
b00100001000000000100000000 )
b00 *
b00000001 ,
b00000000 -
b001000 .
b01100100 /
b00000000 1
02
b01100100 3
b00000001 4
b01100100 5
b0000000001100100 6
b00000000 8
b0000000000000000 9
b00000000 :
b00000000 ;
1=
b11 >
b00100000 ?
b01010000 @
b00100000 C
b01010000 D
1E
b00100000 H
b11 I
#22
0'
0E
#23
b01010000000001010011101100 )
b00 +
b00010100 ,
b11101100 -
b010100 .
b00010100 /
b01100100 0
b11101100 1
12
b00000001 3
b00010100 4
b00010100 5
b0000000000010100 6
b00000001 7
b11101100 8
b1111111111101100 9
1<
0=
b00 >
b01100100 B
1E
b00 I
1J
#24
0<
0E
0F
b01010000 H
0J
#25
1'
b11011000 (
b11100100000100000001100000 )
b01000000 ,
b01100000 -
b111001 .
b00000000 /
b11011000 0
b11001110 1
b11011000 3
b01000000 4
b11101100 5
b1111011000000000 6
b11011000 7
b11100010 8
b1111000100000000 9
b00010100 :
b11101100 ;
b01 >
b00010100 ?
b11101100 @
b11011000 A
b00010100 C
b11101100 D
1E
1F
b11011000 G
b00010100 H
b01 I
#26
0'
0E
#27
1'
b01100100 (
b11100101010110000011000000 )
b01 *
b01 +
b01100000 ,
b11000000 -
b01001011 /
b01100100 0
b10011100 1
b01100100 3
b01100000 4
b01001011 5
b0010010110000000 6
b01100100 7
b11001110 8
b1110011100000000 9
b00000000 :
b11001110 ;
b10 >
b00000000 ?
b11001110 @
b00000000 C
b11001110 D
1E
b00000000 H
b10 I
#28
0'
0E
#29
1'
b11011000 (
b00100001000000000100000000 )
b00 *
b00000001 ,
b00000000 -
b001000 .
b11011000 /
b00000000 1
02
b11011000 3
b00000001 4
b11011000 5
b1111111111011000 6
b00000000 8
b0000000000000000 9
b00000000 ;
1=
b11 >
b01001011 ?
b10011100 @
b01001011 C
b10011100 D
1E
b01001011 H
b11 I
#30
0'
0E
#31
b01010000000001010011101100 )
b00 +
b00010100 ,
b11101100 -
b010100 .
b00010100 /
b11011000 0
b11101100 1
12
b00000001 3
b00010100 4
b00010100 5
b0000000000010100 6
b00000001 7
b11101100 8
b1111111111101100 9
1<
0=
b00 >
b11011000 B
1E
b00 I
1J
#32
0<
0E
0F
b10011100 H
0J
#33
1'
b01100100 (
b11100100000100000001100000 )
b01000000 ,
b01100000 -
b111001 .
b01000110 /
b01100100 0
b00110111 1
b01100100 3
b01000000 4
b00110010 5
b0001100100000000 6
b01100100 7
b01001011 8
b0010010110000000 9
b00010100 :
b11101100 ;
b01 >
b00010100 ?
b11101100 @
b01100100 A
b00010100 C
b11101100 D
1E
1F
b01100100 G
b00010100 H
b01 I
#34
0'
0E
#35
1'
b11011000 (
b11100101010110000011000000 )
b01 *
b01 +
b01100000 ,
b11000000 -
b00101000 /
b11011000 0
b01001011 1
b11011000 3
b01100000 4
b11100010 5
b1111000100000000 6
b11011000 7
b00010100 8
b0000101000000000 9
b01000110 :
b00110111 ;
b10 >
b01000110 ?
b00110111 @
b01000110 C
b00110111 D
1E
b01000110 H
b10 I
#36
0'
0E
#37
1'
b01100100 (
b00100001000000000100000000 )
b00 *
b00000001 ,
b00000000 -
b001000 .
b01100100 /
b00000000 1
02
b01100100 3
b00000001 4
b01100100 5
b0000000001100100 6
b00000000 8
b0000000000000000 9
b00000000 :
b00000000 ;
1=
b11 >
b00101000 ?
b01001011 @
b00101000 C
b01001011 D
1E
b00101000 H
b11 I
#38
0'
0E
#39
b01010000000001010011101100 )
b00 +
b00010100 ,
b11101100 -
b010100 .
b00010100 /
b01100100 0
b11101100 1
12
b00000001 3
b00010100 4
b00010100 5
b0000000000010100 6
b00000001 7
b11101100 8
b1111111111101100 9
1<
0=
b00 >
b01100100 B
1E
b00 I
1J
#40
0<
0E
0F
b01001011 H
0J
#41
1'
b11100010 (
b11100100000100000001100000 )
b01000000 ,
b01100000 -
b111001 .
b00000101 /
b11100010 0
b11010101 1
b11100010 3
b01000000 4
b11110001 5
b1111100010000000 6
b11100010 7
b11101001 8
b1111010011000000 9
b00010100 :
b11101100 ;
b01 >
b00010100 ?
b11101100 @
b11100010 A
b00010100 C
b11101100 D
1E
1F
b11100010 G
b00010100 H
b01 I
#42
0'
0E
#43
1'
b01100100 (
b11100101010110000011000000 )
b01 *
b01 +
b01100000 ,
b11000000 -
b01010000 /
b01100100 0
b10100011 1
b01100100 3
b01100000 4
b01001011 5
b0010010110000000 6
b01100100 7
b11001110 8
b1110011100000000 9
b00000101 :
b11010101 ;
b10 >
b00000101 ?
b11010101 @
b00000101 C
b11010101 D
1E
b00000101 H
b10 I
#44
0'
0E
#45
1'
b11100010 (
b00100001000000000100000000 )
b00 *
b00000001 ,
b00000000 -
b001000 .
b11100010 /
b00000000 1
02
b11100010 3
b00000001 4
b11100010 5
b1111111111100010 6
b00000000 8
b0000000000000000 9
b00000000 :
b00000000 ;
1=
b11 >
b01010000 ?
b10100011 @
b01010000 C
b10100011 D
1E
b01010000 H
b11 I
#46
0'
0E
#47
b01010000000001010011101100 )
b00 +
b00010100 ,
b11101100 -
b010100 .
b00010100 /
b11100010 0
b11101100 1
12
b00000001 3
b00010100 4
b00010100 5
b0000000000010100 6
b00000001 7
b11101100 8
b1111111111101100 9
1<
0=
b00 >
b11100010 B
1E
b00 I
1J
#48
0<
0E
0F
b10100011 H
0J
#49
1'
b01100100 (
b11100100000100000001100000 )
b01000000 ,
b01100000 -
b111001 .
b01000110 /
b01100100 0
b00110111 1
b01100100 3
b01000000 4
b00110010 5
b0001100100000000 6
b01100100 7
b01001011 8
b0010010110000000 9
b00010100 :
b11101100 ;
b01 >
b00010100 ?
b11101100 @
b01100100 A
b00010100 C
b11101100 D
1E
1F
b01100100 G
b00010100 H
b01 I
#50
0'
0E
#51
1'
b11100010 (
b11100101010110000011000000 )
b01 *
b01 +
b01100000 ,
b11000000 -
b00101111 /
b11100010 0
b01000110 1
b11100010 3
b01100000 4
b11101001 5
b1111010011000000 6
b11100010 7
b00001111 8
b0000011110000000 9
b01000110 :
b00110111 ;
b10 >
b01000110 ?
b00110111 @
b01000110 C
b00110111 D
1E
b01000110 H
b10 I
#52
0'
0E
#53
1'
b01100100 (
b00100001000000000100000000 )
b00 *
b00000001 ,
b00000000 -
b001000 .
b01100100 /
b00000000 1
02
b01100100 3
b00000001 4
b01100100 5
b0000000001100100 6
b00000000 8
b0000000000000000 9
b00000000 :
b00000000 ;
1=
b11 >
b00101111 ?
b01000110 @
b00101111 C
b01000110 D
1E
b00101111 H
b11 I
#54
0'
0E
#55
b01010000000001010011101100 )
b00 +
b00010100 ,
b11101100 -
b010100 .
b00010100 /
b01100100 0
b11101100 1
12
b00000001 3
b00010100 4
b00010100 5
b0000000000010100 6
b00000001 7
b11101100 8
b1111111111101100 9
1<
0=
b00 >
b01100100 B
1E
b00 I
1J
#56
0<
0E
0F
b01000110 H
0J
#57
1'
b11101100 (
b11100100000100000001100000 )
b01000000 ,
b01100000 -
b111001 .
b00001010 /
b11101100 0
b11011101 1
b11101100 3
b01000000 4
b11110110 5
b1111101100000000 6
b11101100 7
b11110001 8
b1111100010000000 9
b00010100 :
b11101100 ;
b01 >
b00010100 ?
b11101100 @
b11101100 A
b00010100 C
b11101100 D
1E
1F
b11101100 G
b00010100 H
b01 I
#58
0'
0E
#59
1'
b01100100 (
b11100101010110000011000000 )
b01 *
b01 +
b01100000 ,
b11000000 -
b01010101 /
b01100100 0
b10101011 1
b01100100 3
b01100000 4
b01001011 5
b0010010110000000 6
b01100100 7
b11001110 8
b1110011100000000 9
b00001010 :
b11011101 ;
b10 >
b00001010 ?
b11011101 @
b00001010 C
b11011101 D
1E
b00001010 H
b10 I
#60
0'
0E
#61
1'
b11101100 (
b00100001000000000100000000 )
b00 *
b00000001 ,
b00000000 -
b001000 .
b11101100 /
b00000000 1
02
b11101100 3
b00000001 4
b11101100 5
b1111111111101100 6
b00000000 8
b0000000000000000 9
b00000000 :
b00000000 ;
1=
b11 >
b01010101 ?
b10101011 @
b01010101 C
b10101011 D
1E
b01010101 H
b11 I
#62
0'
0E
#63
b01010000000001010011101100 )
b00 +
b00010100 ,
b11101100 -
b010100 .
b00010100 /
b11101100 0
b11101100 1
12
b00000001 3
b00010100 4
b00010100 5
b0000000000010100 6
b00000001 7
b11101100 8
b1111111111101100 9
1<
0=
b00 >
b11101100 B
1E
b00 I
1J
#64
0<
0E
0F
b10101011 H
0J
#65
1'
b01100100 (
b11100100000100000001100000 )
b01000000 ,
b01100000 -
b111001 .
b01000110 /
b01100100 0
b00110111 1
b01100100 3
b01000000 4
b00110010 5
b0001100100000000 6
b01100100 7
b01001011 8
b0010010110000000 9
b00010100 :
b11101100 ;
b01 >
b00010100 ?
b11101100 @
b01100100 A
b00010100 C
b11101100 D
1E
1F
b01100100 G
b00010100 H
b01 I
#66
0'
0E
#67
1'
b11101100 (
b11100101010110000011000000 )
b01 *
b01 +
b01100000 ,
b11000000 -
b00110111 /
b11101100 0
b01000001 1
b11101100 3
b01100000 4
b11110001 5
b1111100010000000 6
b11101100 7
b00001010 8
b0000010100000000 9
b01000110 :
b00110111 ;
b10 >
b01000110 ?
b00110111 @
b01000110 C
b00110111 D
1E
b01000110 H
b10 I
#68
0'
0E
#69
1'
b01100100 (
b00100001000000000100000000 )
b00 *
b00000001 ,
b00000000 -
b001000 .
b01100100 /
b00000000 1
02
b01100100 3
b00000001 4
b01100100 5
b0000000001100100 6
b00000000 8
b0000000000000000 9
b00000000 :
b00000000 ;
1=
b11 >
b00110111 ?
b01000001 @
b00110111 C
b01000001 D
1E
b00110111 H
b11 I
#70
0'
0E
#71
b01010000000001010011101100 )
b00 +
b00010100 ,
b11101100 -
b010100 .
b00010100 /
b01100100 0
b11101100 1
12
b00000001 3
b00010100 4
b00010100 5
b0000000000010100 6
b00000001 7
b11101100 8
b1111111111101100 9
1<
0=
b00 >
b01100100 B
1E
b00 I
1J
#72
0<
0E
0F
b01000001 H
0J
#73
1'
b11110110 (
b11100100000100000001100000 )
b01000000 ,
b01100000 -
b111001 .
b00001111 /
b11110110 0
b11100100 1
b11110110 3
b01000000 4
b11111011 5
b1111110110000000 6
b11110110 7
b11111000 8
b1111110001000000 9
b00010100 :
b11101100 ;
b01 >
b00010100 ?
b11101100 @
b11110110 A
b00010100 C
b11101100 D
1E
1F
b11110110 G
b00010100 H
b01 I
#74
0'
0E
#75
1'
b01100100 (
b11100101010110000011000000 )
b01 *
b01 +
b01100000 ,
b11000000 -
b01011010 /
b01100100 0
b10110010 1
b01100100 3
b01100000 4
b01001011 5
b0010010110000000 6
b01100100 7
b11001110 8
b1110011100000000 9
b00001111 :
b11100100 ;
b10 >
b00001111 ?
b11100100 @
b00001111 C
b11100100 D
1E
b00001111 H
b10 I
#76
0'
0E
#77
1'
b11110110 (
b00100001000000000100000000 )
b00 *
b00000001 ,
b00000000 -
b001000 .
b11110110 /
b00000000 1
02
b11110110 3
b00000001 4
b11110110 5
b1111111111110110 6
b00000000 8
b0000000000000000 9
b00000000 :
b00000000 ;
1=
b11 >
b01011010 ?
b10110010 @
b01011010 C
b10110010 D
1E
b01011010 H
b11 I
#78
0'
0E
#79
b01010000000001010011101100 )
b00 +
b00010100 ,
b11101100 -
b010100 .
b00010100 /
b11110110 0
b11101100 1
12
b00000001 3
b00010100 4
b00010100 5
b0000000000010100 6
b00000001 7
b11101100 8
b1111111111101100 9
1<
0=
b00 >
b11110110 B
1E
b00 I
1J
#80
0<
0E
0F
b10110010 H
0J
#81
1'
b01100100 (
b11100100000100000001100000 )
b01000000 ,
b01100000 -
b111001 .
b01000110 /
b01100100 0
b00110111 1
b01100100 3
b01000000 4
b00110010 5
b0001100100000000 6
b01100100 7
b01001011 8
b0010010110000000 9
b00010100 :
b11101100 ;
b01 >
b00010100 ?
b11101100 @
b01100100 A
b00010100 C
b11101100 D
1E
1F
b01100100 G
b00010100 H
b01 I
#82
0'
0E
#83
1'
b11110110 (
b11100101010110000011000000 )
b01 *
b01 +
b01100000 ,
b11000000 -
b00111110 /
b11110110 0
b00111100 1
b11110110 3
b01100000 4
b11111000 5
b1111110001000000 6
b11110110 7
b00000101 8
b0000001010000000 9
b01000110 :
b00110111 ;
b10 >
b01000110 ?
b00110111 @
b01000110 C
b00110111 D
1E
b01000110 H
b10 I
#84
0'
0E
#85
1'
b01100100 (
b00100001000000000100000000 )
b00 *
b00000001 ,
b00000000 -
b001000 .
b01100100 /
b00000000 1
02
b01100100 3
b00000001 4
b01100100 5
b0000000001100100 6
b00000000 8
b0000000000000000 9
b00000000 :
b00000000 ;
1=
b11 >
b00111110 ?
b00111100 @
b00111110 C
b00111100 D
1E
b00111110 H
b11 I
#86
0'
0E
#87
b01010000000001010011101100 )
b00 +
b00010100 ,
b11101100 -
b010100 .
b00010100 /
b01100100 0
b11101100 1
12
b00000001 3
b00010100 4
b00010100 5
b0000000000010100 6
b00000001 7
b11101100 8
b1111111111101100 9
1<
0=
b00 >
b01100100 B
1E
b00 I
1J
#88
0<
0E
0F
b00111100 H
0J
#89
1'
b00000000 (
b11100100000100000001100000 )
b01000000 ,
b01100000 -
b111001 .
b00000000 0
b00000000 3
b01000000 4
b00000000 5
b0000000000000000 6
b00000000 7
b00000000 8
b0000000000000000 9
b00010100 :
b11101100 ;
b01 >
b00010100 ?
b11101100 @
b00000000 A
b00010100 C
b11101100 D
1E
1F
b00000000 G
b00010100 H
b01 I
#90
0'
0E
#91
1'
b01100100 (
b11100101010110000011000000 )
b01 *
b01 +
b01100000 ,
b11000000 -
b01011111 /
b01100100 0
b10111010 1
b01100100 3
b01100000 4
b01001011 5
b0010010110000000 6
b01100100 7
b11001110 8
b1110011100000000 9
b10 >
1E
b10 I
#92
0'
0E
#93
1'
b00000000 (
b00100001000000000100000000 )
b00 *
b00000001 ,
b00000000 -
b001000 .
b00000000 /
b00000000 1
02
b00000000 3
b00000001 4
b00000000 5
b0000000000000000 6
b00000000 8
b0000000000000000 9
b00000000 :
b00000000 ;
1=
b11 >
b01011111 ?
b10111010 @
b01011111 C
b10111010 D
1E
b01011111 H
b11 I
#94
0'
0E
#95
b01010000000001010011101100 )
b00 +
b00010100 ,
b11101100 -
b010100 .
b00010100 /
b00000000 0
b11101100 1
12
b00000001 3
b00010100 4
b00010100 5
b0000000000010100 6
b00000001 7
b11101100 8
b1111111111101100 9
1<
0=
b00 >
b00000000 B
1E
b00 I
1J
#96
0<
0E
0F
b10111010 H
0J
#97
1'
b01100100 (
b11100100000100000001100000 )
b01000000 ,
b01100000 -
b111001 .
b01000110 /
b01100100 0
b00110111 1
b01100100 3
b01000000 4
b00110010 5
b0001100100000000 6
b01100100 7
b01001011 8
b0010010110000000 9
b00010100 :
b11101100 ;
b01 >
b00010100 ?
b11101100 @
b01100100 A
b00010100 C
b11101100 D
1E
1F
b01100100 G
b00010100 H
b01 I
#98
0'
0E
#99
1'
b00000000 (
b11100101010110000011000000 )
b01 *
b01 +
b01100000 ,
b11000000 -
b00000000 0
b00000000 3
b01100000 4
b00000000 5
b0000000000000000 6
b00000000 7
b00000000 8
b0000000000000000 9
b01000110 :
b00110111 ;
b10 >
b01000110 ?
b00110111 @
b01000110 C
b00110111 D
1E
b01000110 H
b10 I
#100
0'
0E
#101
1'
b01100100 (
b00100001000000000100000000 )
b00 *
b00000001 ,
b00000000 -
b001000 .
b01100100 /
b00000000 1
02
b01100100 3
b00000001 4
b01100100 5
b0000000001100100 6
b00000000 :
b00000000 ;
1=
b11 >
1E
b11 I
#102
0'
0E
#103
b01010000000001010011101100 )
b00 +
b00010100 ,
b11101100 -
b010100 .
b00010100 /
b01100100 0
b11101100 1
12
b00000001 3
b00010100 4
b00010100 5
b0000000000010100 6
b00000001 7
b11101100 8
b1111111111101100 9
1<
0=
b00 >
b01100100 B
1E
b00 I
1J
#104
0<
0E
0F
b00110111 H
0J
#105
1'
b00001010 (
b11100100000100000001100000 )
b01000000 ,
b01100000 -
b111001 .
b00011001 /
b00001010 0
b11110011 1
b00001010 3
b01000000 4
b00000101 5
b0000001010000000 6
b00001010 7
b00000111 8
b0000001111000000 9
b00010100 :
b11101100 ;
b01 >
b00010100 ?
b11101100 @
b00001010 A
b00010100 C
b11101100 D
1E
1F
b00001010 G
b00010100 H
b01 I
#106
0'
0E
#107
1'
b01100100 (
b11100101010110000011000000 )
b01 *
b01 +
b01100000 ,
b11000000 -
b01100100 /
b01100100 0
b11000001 1
b01100100 3
b01100000 4
b01001011 5
b0010010110000000 6
b01100100 7
b11001110 8
b1110011100000000 9
b00011001 :
b11110011 ;
b10 >
b00011001 ?
b11110011 @
b00011001 C
b11110011 D
1E
b00011001 H
b10 I
#108
0'
0E
#109
1'
b00001010 (
b00100001000000000100000000 )
b00 *
b00000001 ,
b00000000 -
b001000 .
b00001010 /
b00000000 1
02
b00001010 3
b00000001 4
b00001010 5
b0000000000001010 6
b00000000 8
b0000000000000000 9
b00000000 :
b00000000 ;
1=
b11 >
b01100100 ?
b11000001 @
b01100100 C
b11000001 D
1E
b01100100 H
b11 I
#110
0'
0E
#111
b01010000000001010011101100 )
b00 +
b00010100 ,
b11101100 -
b010100 .
b00010100 /
b00001010 0
b11101100 1
12
b00000001 3
b00010100 4
b00010100 5
b0000000000010100 6
b00000001 7
b11101100 8
b1111111111101100 9
1<
0=
b00 >
b00001010 B
1E
b00 I
1J
#112
0<
0E
0F
b11000001 H
0J
#113
1'
b01100100 (
b11100100000100000001100000 )
b01000000 ,
b01100000 -
b111001 .
b01000110 /
b01100100 0
b00110111 1
b01100100 3
b01000000 4
b00110010 5
b0001100100000000 6
b01100100 7
b01001011 8
b0010010110000000 9
b00010100 :
b11101100 ;
b01 >
b00010100 ?
b11101100 @
b01100100 A
b00010100 C
b11101100 D
1E
1F
b01100100 G
b00010100 H
b01 I
#114
0'
0E
#115
1'
b00001010 (
b11100101010110000011000000 )
b01 *
b01 +
b01100000 ,
b11000000 -
b01001101 /
b00001010 0
b00110010 1
b00001010 3
b01100000 4
b00000111 5
b0000001111000000 6
b00001010 7
b11111011 8
b1111110110000000 9
b01000110 :
b00110111 ;
b10 >
b01000110 ?
b00110111 @
b01000110 C
b00110111 D
1E
b01000110 H
b10 I
#116
0'
0E
#117
1'
b01100100 (
b00100001000000000100000000 )
b00 *
b00000001 ,
b00000000 -
b001000 .
b01100100 /
b00000000 1
02
b01100100 3
b00000001 4
b01100100 5
b0000000001100100 6
b00000000 8
b0000000000000000 9
b00000000 :
b00000000 ;
1=
b11 >
b01001101 ?
b00110010 @
b01001101 C
b00110010 D
1E
b01001101 H
b11 I
#118
0'
0E
#119
b01010000000001010011101100 )
b00 +
b00010100 ,
b11101100 -
b010100 .
b00010100 /
b01100100 0
b11101100 1
12
b00000001 3
b00010100 4
b00010100 5
b0000000000010100 6
b00000001 7
b11101100 8
b1111111111101100 9
1<
0=
b00 >
b01100100 B
1E
b00 I
1J
#120
0<
0E
0F
b00110010 H
0J
#121
1'
b00010100 (
b11100100000100000001100000 )
b01000000 ,
b01100000 -
b111001 .
b00011110 /
b00010100 0
b11111011 1
b00010100 3
b01000000 4
b00001010 5
b0000010100000000 6
b00010100 7
b00001111 8
b0000011110000000 9
b00010100 :
b11101100 ;
b01 >
b00010100 ?
b11101100 @
b00010100 A
b00010100 C
b11101100 D
1E
1F
b00010100 G
b00010100 H
b01 I
#122
0'
0E
#123
1'
b01100100 (
b11100101010110000011000000 )
b01 *
b01 +
b01100000 ,
b11000000 -
b01101001 /
b01100100 0
b11001001 1
b01100100 3
b01100000 4
b01001011 5
b0010010110000000 6
b01100100 7
b11001110 8
b1110011100000000 9
b00011110 :
b11111011 ;
b10 >
b00011110 ?
b11111011 @
b00011110 C
b11111011 D
1E
b00011110 H
b10 I
#124
0'
0E
#125
1'
b00010100 (
b00100001000000000100000000 )
b00 *
b00000001 ,
b00000000 -
b001000 .
b00010100 /
b00000000 1
02
b00010100 3
b00000001 4
b00010100 5
b0000000000010100 6
b00000000 8
b0000000000000000 9
b00000000 :
b00000000 ;
1=
b11 >
b01101001 ?
b11001001 @
b01101001 C
b11001001 D
1E
b01101001 H
b11 I
#126
0'
0E
#127
b01010000000001010011101100 )
b00 +
b00010100 ,
b11101100 -
b010100 .
b00010100 0
b11101100 1
12
b00000001 3
b00010100 4
b00000001 7
b11101100 8
b1111111111101100 9
1<
0=
b00 >
b00010100 B
1E
b00 I
1J
#128
0<
0E
0F
b11001001 H
0J
#129
1'
b01100100 (
b11100100000100000001100000 )
b01000000 ,
b01100000 -
b111001 .
b01000110 /
b01100100 0
b00110111 1
b01100100 3
b01000000 4
b00110010 5
b0001100100000000 6
b01100100 7
b01001011 8
b0010010110000000 9
b00010100 :
b11101100 ;
b01 >
b00010100 ?
b11101100 @
b01100100 A
b00010100 C
b11101100 D
1E
1F
b01100100 G
b00010100 H
b01 I
#130
0'
0E
#131
1'
b00010100 (
b11100101010110000011000000 )
b01 *
b01 +
b01100000 ,
b11000000 -
b01010101 /
b00010100 0
b00101101 1
b00010100 3
b01100000 4
b00001111 5
b0000011110000000 6
b00010100 7
b11110110 8
b1111101100000000 9
b01000110 :
b00110111 ;
b10 >
b01000110 ?
b00110111 @
b01000110 C
b00110111 D
1E
b01000110 H
b10 I
#132
0'
0E
#133
1'
b01100100 (
b00100001000000000100000000 )
b00 *
b00000001 ,
b00000000 -
b001000 .
b01100100 /
b00000000 1
02
b01100100 3
b00000001 4
b01100100 5
b0000000001100100 6
b00000000 8
b0000000000000000 9
b00000000 :
b00000000 ;
1=
b11 >
b01010101 ?
b00101101 @
b01010101 C
b00101101 D
1E
b01010101 H
b11 I
#134
0'
0E
#135
b01010000000001010011101100 )
b00 +
b00010100 ,
b11101100 -
b010100 .
b00010100 /
b01100100 0
b11101100 1
12
b00000001 3
b00010100 4
b00010100 5
b0000000000010100 6
b00000001 7
b11101100 8
b1111111111101100 9
1<
0=
b00 >
b01100100 B
1E
b00 I
1J
#136
0<
0E
0F
b00101101 H
0J
